EESchema Schematic File Version 4
EELAYER 30 0
EELAYER END
$Descr A3 16535 11693
encoding utf-8
Sheet 1 1
Title ""
Date "2022-07-15 19:35"
Rev ""
Comp ""
Comment1 "Author: "
Comment2 "Generated by klepcbgen.py v0.1"
Comment3 ""
Comment4 ""
$EndDescr
$Comp
L Switch:SW_Push K0
U 1 1 KEYSWITCH_0
P 1200 1050
F 0 "K0" H 1200 1283 60  0000 C CNN
F 1 "KEYSW" H 1200 950 60  0001 C CNN
F 2 "Button_Switch_Keyboard:SW_Cherry_MX_1.00u_PCB" H 1200 1050 60  0001 C CNN
F 3 "" H 1200 1050 60  0000 C CNN
	1    1200 1050
	1    0    0    -1  
$EndComp
$Comp
L Device:D D0
U 1 1 DIODE_0
P 1400 1200
F 0 "D0" V 1500 1200 60  0000 R CNN
F 1 "D" V 1150 1150 60  0001 R CNN
F 2 "Diode_SMD:D_0805_2012Metric_Pad1.15x1.40mm_HandSolder" H 1000 1200 60  0001 C CNN
F 3 "" H 1000 1200 60  0000 C CNN
	1    1400 1200 
	0    -1   -1   0   
$EndComp
Text Label 1400  1350 0    50   ~ 0
Row_0
Text Label 1000  1050 2    50   ~ 0
Col_0
$Comp
L Switch:SW_Push K1
U 1 1 KEYSWITCH_1
P 2000 1050
F 0 "K1" H 2000 1283 60  0000 C CNN
F 1 "KEYSW" H 2000 950 60  0001 C CNN
F 2 "Button_Switch_Keyboard:SW_Cherry_MX_1.00u_PCB" H 2000 1050 60  0001 C CNN
F 3 "" H 2000 1050 60  0000 C CNN
	1    2000 1050
	1    0    0    -1  
$EndComp
$Comp
L Device:D D1
U 1 1 DIODE_1
P 2200 1200
F 0 "D1" V 2300 1200 60  0000 R CNN
F 1 "D" V 1950 1150 60  0001 R CNN
F 2 "Diode_SMD:D_0805_2012Metric_Pad1.15x1.40mm_HandSolder" H 1800 1200 60  0001 C CNN
F 3 "" H 1800 1200 60  0000 C CNN
	1    2200 1200 
	0    -1   -1   0   
$EndComp
Text Label 2200  1350 0    50   ~ 0
Row_0
Text Label 1800  1050 2    50   ~ 0
Col_1
$Comp
L Switch:SW_Push K2
U 1 1 KEYSWITCH_2
P 2800 1050
F 0 "K2" H 2800 1283 60  0000 C CNN
F 1 "KEYSW" H 2800 950 60  0001 C CNN
F 2 "Button_Switch_Keyboard:SW_Cherry_MX_1.00u_PCB" H 2800 1050 60  0001 C CNN
F 3 "" H 2800 1050 60  0000 C CNN
	1    2800 1050
	1    0    0    -1  
$EndComp
$Comp
L Device:D D2
U 1 1 DIODE_2
P 3000 1200
F 0 "D2" V 3100 1200 60  0000 R CNN
F 1 "D" V 2750 1150 60  0001 R CNN
F 2 "Diode_SMD:D_0805_2012Metric_Pad1.15x1.40mm_HandSolder" H 2600 1200 60  0001 C CNN
F 3 "" H 2600 1200 60  0000 C CNN
	1    3000 1200 
	0    -1   -1   0   
$EndComp
Text Label 3000  1350 0    50   ~ 0
Row_0
Text Label 2600  1050 2    50   ~ 0
Col_2
$Comp
L Switch:SW_Push K3
U 1 1 KEYSWITCH_3
P 3600 1050
F 0 "K3" H 3600 1283 60  0000 C CNN
F 1 "KEYSW" H 3600 950 60  0001 C CNN
F 2 "Button_Switch_Keyboard:SW_Cherry_MX_1.00u_PCB" H 3600 1050 60  0001 C CNN
F 3 "" H 3600 1050 60  0000 C CNN
	1    3600 1050
	1    0    0    -1  
$EndComp
$Comp
L Device:D D3
U 1 1 DIODE_3
P 3800 1200
F 0 "D3" V 3900 1200 60  0000 R CNN
F 1 "D" V 3550 1150 60  0001 R CNN
F 2 "Diode_SMD:D_0805_2012Metric_Pad1.15x1.40mm_HandSolder" H 3400 1200 60  0001 C CNN
F 3 "" H 3400 1200 60  0000 C CNN
	1    3800 1200 
	0    -1   -1   0   
$EndComp
Text Label 3800  1350 0    50   ~ 0
Row_0
Text Label 3400  1050 2    50   ~ 0
Col_3
$Comp
L Switch:SW_Push K4
U 1 1 KEYSWITCH_4
P 4400 1050
F 0 "K4" H 4400 1283 60  0000 C CNN
F 1 "KEYSW" H 4400 950 60  0001 C CNN
F 2 "Button_Switch_Keyboard:SW_Cherry_MX_1.00u_PCB" H 4400 1050 60  0001 C CNN
F 3 "" H 4400 1050 60  0000 C CNN
	1    4400 1050
	1    0    0    -1  
$EndComp
$Comp
L Device:D D4
U 1 1 DIODE_4
P 4600 1200
F 0 "D4" V 4700 1200 60  0000 R CNN
F 1 "D" V 4350 1150 60  0001 R CNN
F 2 "Diode_SMD:D_0805_2012Metric_Pad1.15x1.40mm_HandSolder" H 4200 1200 60  0001 C CNN
F 3 "" H 4200 1200 60  0000 C CNN
	1    4600 1200 
	0    -1   -1   0   
$EndComp
Text Label 4600  1350 0    50   ~ 0
Row_0
Text Label 4200  1050 2    50   ~ 0
Col_4
$Comp
L Switch:SW_Push K5
U 1 1 KEYSWITCH_5
P 5200 1050
F 0 "K5" H 5200 1283 60  0000 C CNN
F 1 "KEYSW" H 5200 950 60  0001 C CNN
F 2 "Button_Switch_Keyboard:SW_Cherry_MX_1.00u_PCB" H 5200 1050 60  0001 C CNN
F 3 "" H 5200 1050 60  0000 C CNN
	1    5200 1050
	1    0    0    -1  
$EndComp
$Comp
L Device:D D5
U 1 1 DIODE_5
P 5400 1200
F 0 "D5" V 5500 1200 60  0000 R CNN
F 1 "D" V 5150 1150 60  0001 R CNN
F 2 "Diode_SMD:D_0805_2012Metric_Pad1.15x1.40mm_HandSolder" H 5000 1200 60  0001 C CNN
F 3 "" H 5000 1200 60  0000 C CNN
	1    5400 1200 
	0    -1   -1   0   
$EndComp
Text Label 5400  1350 0    50   ~ 0
Row_0
Text Label 5000  1050 2    50   ~ 0
Col_5
$Comp
L Switch:SW_Push K6
U 1 1 KEYSWITCH_6
P 6000 1050
F 0 "K6" H 6000 1283 60  0000 C CNN
F 1 "KEYSW" H 6000 950 60  0001 C CNN
F 2 "Button_Switch_Keyboard:SW_Cherry_MX_1.00u_PCB" H 6000 1050 60  0001 C CNN
F 3 "" H 6000 1050 60  0000 C CNN
	1    6000 1050
	1    0    0    -1  
$EndComp
$Comp
L Device:D D6
U 1 1 DIODE_6
P 6200 1200
F 0 "D6" V 6300 1200 60  0000 R CNN
F 1 "D" V 5950 1150 60  0001 R CNN
F 2 "Diode_SMD:D_0805_2012Metric_Pad1.15x1.40mm_HandSolder" H 5800 1200 60  0001 C CNN
F 3 "" H 5800 1200 60  0000 C CNN
	1    6200 1200 
	0    -1   -1   0   
$EndComp
Text Label 6200  1350 0    50   ~ 0
Row_0
Text Label 5800  1050 2    50   ~ 0
Col_6
$Comp
L Switch:SW_Push K7
U 1 1 KEYSWITCH_7
P 6800 1050
F 0 "K7" H 6800 1283 60  0000 C CNN
F 1 "KEYSW" H 6800 950 60  0001 C CNN
F 2 "Button_Switch_Keyboard:SW_Cherry_MX_1.00u_PCB" H 6800 1050 60  0001 C CNN
F 3 "" H 6800 1050 60  0000 C CNN
	1    6800 1050
	1    0    0    -1  
$EndComp
$Comp
L Device:D D7
U 1 1 DIODE_7
P 7000 1200
F 0 "D7" V 7100 1200 60  0000 R CNN
F 1 "D" V 6750 1150 60  0001 R CNN
F 2 "Diode_SMD:D_0805_2012Metric_Pad1.15x1.40mm_HandSolder" H 6600 1200 60  0001 C CNN
F 3 "" H 6600 1200 60  0000 C CNN
	1    7000 1200 
	0    -1   -1   0   
$EndComp
Text Label 7000  1350 0    50   ~ 0
Row_0
Text Label 6600  1050 2    50   ~ 0
Col_7
$Comp
L Switch:SW_Push K8
U 1 1 KEYSWITCH_8
P 7600 1050
F 0 "K8" H 7600 1283 60  0000 C CNN
F 1 "KEYSW" H 7600 950 60  0001 C CNN
F 2 "Button_Switch_Keyboard:SW_Cherry_MX_1.00u_PCB" H 7600 1050 60  0001 C CNN
F 3 "" H 7600 1050 60  0000 C CNN
	1    7600 1050
	1    0    0    -1  
$EndComp
$Comp
L Device:D D8
U 1 1 DIODE_8
P 7800 1200
F 0 "D8" V 7900 1200 60  0000 R CNN
F 1 "D" V 7550 1150 60  0001 R CNN
F 2 "Diode_SMD:D_0805_2012Metric_Pad1.15x1.40mm_HandSolder" H 7400 1200 60  0001 C CNN
F 3 "" H 7400 1200 60  0000 C CNN
	1    7800 1200 
	0    -1   -1   0   
$EndComp
Text Label 7800  1350 0    50   ~ 0
Row_0
Text Label 7400  1050 2    50   ~ 0
Col_8
$Comp
L Switch:SW_Push K9
U 1 1 KEYSWITCH_9
P 8400 1050
F 0 "K9" H 8400 1283 60  0000 C CNN
F 1 "KEYSW" H 8400 950 60  0001 C CNN
F 2 "Button_Switch_Keyboard:SW_Cherry_MX_1.00u_PCB" H 8400 1050 60  0001 C CNN
F 3 "" H 8400 1050 60  0000 C CNN
	1    8400 1050
	1    0    0    -1  
$EndComp
$Comp
L Device:D D9
U 1 1 DIODE_9
P 8600 1200
F 0 "D9" V 8700 1200 60  0000 R CNN
F 1 "D" V 8350 1150 60  0001 R CNN
F 2 "Diode_SMD:D_0805_2012Metric_Pad1.15x1.40mm_HandSolder" H 8200 1200 60  0001 C CNN
F 3 "" H 8200 1200 60  0000 C CNN
	1    8600 1200 
	0    -1   -1   0   
$EndComp
Text Label 8600  1350 0    50   ~ 0
Row_0
Text Label 8200  1050 2    50   ~ 0
Col_9
$Comp
L Switch:SW_Push K10
U 1 1 KEYSWITCH_10
P 9200 1050
F 0 "K10" H 9200 1283 60  0000 C CNN
F 1 "KEYSW" H 9200 950 60  0001 C CNN
F 2 "Button_Switch_Keyboard:SW_Cherry_MX_1.00u_PCB" H 9200 1050 60  0001 C CNN
F 3 "" H 9200 1050 60  0000 C CNN
	1    9200 1050
	1    0    0    -1  
$EndComp
$Comp
L Device:D D10
U 1 1 DIODE_10
P 9400 1200
F 0 "D10" V 9500 1200 60  0000 R CNN
F 1 "D" V 9150 1150 60  0001 R CNN
F 2 "Diode_SMD:D_0805_2012Metric_Pad1.15x1.40mm_HandSolder" H 9000 1200 60  0001 C CNN
F 3 "" H 9000 1200 60  0000 C CNN
	1    9400 1200 
	0    -1   -1   0   
$EndComp
Text Label 9400  1350 0    50   ~ 0
Row_0
Text Label 9000  1050 2    50   ~ 0
Col_10
$Comp
L Switch:SW_Push K11
U 1 1 KEYSWITCH_11
P 10000 1050
F 0 "K11" H 10000 1283 60  0000 C CNN
F 1 "KEYSW" H 10000 950 60  0001 C CNN
F 2 "Button_Switch_Keyboard:SW_Cherry_MX_1.00u_PCB" H 10000 1050 60  0001 C CNN
F 3 "" H 10000 1050 60  0000 C CNN
	1    10000 1050
	1    0    0    -1  
$EndComp
$Comp
L Device:D D11
U 1 1 DIODE_11
P 10200 1200
F 0 "D11" V 10300 1200 60  0000 R CNN
F 1 "D" V 9950 1150 60  0001 R CNN
F 2 "Diode_SMD:D_0805_2012Metric_Pad1.15x1.40mm_HandSolder" H 9800 1200 60  0001 C CNN
F 3 "" H 9800 1200 60  0000 C CNN
	1    10200 1200 
	0    -1   -1   0   
$EndComp
Text Label 10200  1350 0    50   ~ 0
Row_0
Text Label 9800  1050 2    50   ~ 0
Col_11
$Comp
L Switch:SW_Push K12
U 1 1 KEYSWITCH_12
P 10800 1050
F 0 "K12" H 10800 1283 60  0000 C CNN
F 1 "KEYSW" H 10800 950 60  0001 C CNN
F 2 "Button_Switch_Keyboard:SW_Cherry_MX_1.00u_PCB" H 10800 1050 60  0001 C CNN
F 3 "" H 10800 1050 60  0000 C CNN
	1    10800 1050
	1    0    0    -1  
$EndComp
$Comp
L Device:D D12
U 1 1 DIODE_12
P 11000 1200
F 0 "D12" V 11100 1200 60  0000 R CNN
F 1 "D" V 10750 1150 60  0001 R CNN
F 2 "Diode_SMD:D_0805_2012Metric_Pad1.15x1.40mm_HandSolder" H 10600 1200 60  0001 C CNN
F 3 "" H 10600 1200 60  0000 C CNN
	1    11000 1200 
	0    -1   -1   0   
$EndComp
Text Label 11000  1350 0    50   ~ 0
Row_0
Text Label 10600  1050 2    50   ~ 0
Col_12
$Comp
L Switch:SW_Push K13
U 1 1 KEYSWITCH_13
P 11600 1050
F 0 "K13" H 11600 1283 60  0000 C CNN
F 1 "KEYSW" H 11600 950 60  0001 C CNN
F 2 "Button_Switch_Keyboard:SW_Cherry_MX_1.00u_PCB" H 11600 1050 60  0001 C CNN
F 3 "" H 11600 1050 60  0000 C CNN
	1    11600 1050
	1    0    0    -1  
$EndComp
$Comp
L Device:D D13
U 1 1 DIODE_13
P 11800 1200
F 0 "D13" V 11900 1200 60  0000 R CNN
F 1 "D" V 11550 1150 60  0001 R CNN
F 2 "Diode_SMD:D_0805_2012Metric_Pad1.15x1.40mm_HandSolder" H 11400 1200 60  0001 C CNN
F 3 "" H 11400 1200 60  0000 C CNN
	1    11800 1200 
	0    -1   -1   0   
$EndComp
Text Label 11800  1350 0    50   ~ 0
Row_0
Text Label 11400  1050 2    50   ~ 0
Col_13
$Comp
L Switch:SW_Push K14
U 1 1 KEYSWITCH_14
P 12400 1050
F 0 "K14" H 12400 1283 60  0000 C CNN
F 1 "KEYSW" H 12400 950 60  0001 C CNN
F 2 "Button_Switch_Keyboard:SW_Cherry_MX_1.00u_PCB" H 12400 1050 60  0001 C CNN
F 3 "" H 12400 1050 60  0000 C CNN
	1    12400 1050
	1    0    0    -1  
$EndComp
$Comp
L Device:D D14
U 1 1 DIODE_14
P 12600 1200
F 0 "D14" V 12700 1200 60  0000 R CNN
F 1 "D" V 12350 1150 60  0001 R CNN
F 2 "Diode_SMD:D_0805_2012Metric_Pad1.15x1.40mm_HandSolder" H 12200 1200 60  0001 C CNN
F 3 "" H 12200 1200 60  0000 C CNN
	1    12600 1200 
	0    -1   -1   0   
$EndComp
Text Label 12600  1350 0    50   ~ 0
Row_0
Text Label 12200  1050 2    50   ~ 0
Col_14
$Comp
L Switch:SW_Push K15
U 1 1 KEYSWITCH_15
P 13200 1050
F 0 "K15" H 13200 1283 60  0000 C CNN
F 1 "KEYSW" H 13200 950 60  0001 C CNN
F 2 "Button_Switch_Keyboard:SW_Cherry_MX_1.00u_PCB" H 13200 1050 60  0001 C CNN
F 3 "" H 13200 1050 60  0000 C CNN
	1    13200 1050
	1    0    0    -1  
$EndComp
$Comp
L Device:D D15
U 1 1 DIODE_15
P 13400 1200
F 0 "D15" V 13500 1200 60  0000 R CNN
F 1 "D" V 13150 1150 60  0001 R CNN
F 2 "Diode_SMD:D_0805_2012Metric_Pad1.15x1.40mm_HandSolder" H 13000 1200 60  0001 C CNN
F 3 "" H 13000 1200 60  0000 C CNN
	1    13400 1200 
	0    -1   -1   0   
$EndComp
Text Label 13400  1350 0    50   ~ 0
Row_0
Text Label 13000  1050 2    50   ~ 0
Col_15
$Comp
L Switch:SW_Push K16
U 1 1 KEYSWITCH_16
P 1200 1550
F 0 "K16" H 1200 1783 60  0000 C CNN
F 1 "KEYSW" H 1200 1450 60  0001 C CNN
F 2 "Button_Switch_Keyboard:SW_Cherry_MX_1.00u_PCB" H 1200 1550 60  0001 C CNN
F 3 "" H 1200 1550 60  0000 C CNN
	1    1200 1550
	1    0    0    -1  
$EndComp
$Comp
L Device:D D16
U 1 1 DIODE_16
P 1400 1700
F 0 "D16" V 1500 1700 60  0000 R CNN
F 1 "D" V 1150 1650 60  0001 R CNN
F 2 "Diode_SMD:D_0805_2012Metric_Pad1.15x1.40mm_HandSolder" H 1000 1700 60  0001 C CNN
F 3 "" H 1000 1700 60  0000 C CNN
	1    1400 1700 
	0    -1   -1   0   
$EndComp
Text Label 1400  1850 0    50   ~ 0
Row_1
Text Label 1000  1550 2    50   ~ 0
Col_0
$Comp
L Switch:SW_Push K17
U 1 1 KEYSWITCH_17
P 2000 1550
F 0 "K17" H 2000 1783 60  0000 C CNN
F 1 "KEYSW" H 2000 1450 60  0001 C CNN
F 2 "Button_Switch_Keyboard:SW_Cherry_MX_1.00u_PCB" H 2000 1550 60  0001 C CNN
F 3 "" H 2000 1550 60  0000 C CNN
	1    2000 1550
	1    0    0    -1  
$EndComp
$Comp
L Device:D D17
U 1 1 DIODE_17
P 2200 1700
F 0 "D17" V 2300 1700 60  0000 R CNN
F 1 "D" V 1950 1650 60  0001 R CNN
F 2 "Diode_SMD:D_0805_2012Metric_Pad1.15x1.40mm_HandSolder" H 1800 1700 60  0001 C CNN
F 3 "" H 1800 1700 60  0000 C CNN
	1    2200 1700 
	0    -1   -1   0   
$EndComp
Text Label 2200  1850 0    50   ~ 0
Row_1
Text Label 1800  1550 2    50   ~ 0
Col_1
$Comp
L Switch:SW_Push K18
U 1 1 KEYSWITCH_18
P 2800 1550
F 0 "K18" H 2800 1783 60  0000 C CNN
F 1 "KEYSW" H 2800 1450 60  0001 C CNN
F 2 "Button_Switch_Keyboard:SW_Cherry_MX_1.00u_PCB" H 2800 1550 60  0001 C CNN
F 3 "" H 2800 1550 60  0000 C CNN
	1    2800 1550
	1    0    0    -1  
$EndComp
$Comp
L Device:D D18
U 1 1 DIODE_18
P 3000 1700
F 0 "D18" V 3100 1700 60  0000 R CNN
F 1 "D" V 2750 1650 60  0001 R CNN
F 2 "Diode_SMD:D_0805_2012Metric_Pad1.15x1.40mm_HandSolder" H 2600 1700 60  0001 C CNN
F 3 "" H 2600 1700 60  0000 C CNN
	1    3000 1700 
	0    -1   -1   0   
$EndComp
Text Label 3000  1850 0    50   ~ 0
Row_1
Text Label 2600  1550 2    50   ~ 0
Col_2
$Comp
L Switch:SW_Push K19
U 1 1 KEYSWITCH_19
P 3600 1550
F 0 "K19" H 3600 1783 60  0000 C CNN
F 1 "KEYSW" H 3600 1450 60  0001 C CNN
F 2 "Button_Switch_Keyboard:SW_Cherry_MX_1.00u_PCB" H 3600 1550 60  0001 C CNN
F 3 "" H 3600 1550 60  0000 C CNN
	1    3600 1550
	1    0    0    -1  
$EndComp
$Comp
L Device:D D19
U 1 1 DIODE_19
P 3800 1700
F 0 "D19" V 3900 1700 60  0000 R CNN
F 1 "D" V 3550 1650 60  0001 R CNN
F 2 "Diode_SMD:D_0805_2012Metric_Pad1.15x1.40mm_HandSolder" H 3400 1700 60  0001 C CNN
F 3 "" H 3400 1700 60  0000 C CNN
	1    3800 1700 
	0    -1   -1   0   
$EndComp
Text Label 3800  1850 0    50   ~ 0
Row_1
Text Label 3400  1550 2    50   ~ 0
Col_3
$Comp
L Switch:SW_Push K20
U 1 1 KEYSWITCH_20
P 4400 1550
F 0 "K20" H 4400 1783 60  0000 C CNN
F 1 "KEYSW" H 4400 1450 60  0001 C CNN
F 2 "Button_Switch_Keyboard:SW_Cherry_MX_1.00u_PCB" H 4400 1550 60  0001 C CNN
F 3 "" H 4400 1550 60  0000 C CNN
	1    4400 1550
	1    0    0    -1  
$EndComp
$Comp
L Device:D D20
U 1 1 DIODE_20
P 4600 1700
F 0 "D20" V 4700 1700 60  0000 R CNN
F 1 "D" V 4350 1650 60  0001 R CNN
F 2 "Diode_SMD:D_0805_2012Metric_Pad1.15x1.40mm_HandSolder" H 4200 1700 60  0001 C CNN
F 3 "" H 4200 1700 60  0000 C CNN
	1    4600 1700 
	0    -1   -1   0   
$EndComp
Text Label 4600  1850 0    50   ~ 0
Row_1
Text Label 4200  1550 2    50   ~ 0
Col_4
$Comp
L Switch:SW_Push K21
U 1 1 KEYSWITCH_21
P 5200 1550
F 0 "K21" H 5200 1783 60  0000 C CNN
F 1 "KEYSW" H 5200 1450 60  0001 C CNN
F 2 "Button_Switch_Keyboard:SW_Cherry_MX_1.00u_PCB" H 5200 1550 60  0001 C CNN
F 3 "" H 5200 1550 60  0000 C CNN
	1    5200 1550
	1    0    0    -1  
$EndComp
$Comp
L Device:D D21
U 1 1 DIODE_21
P 5400 1700
F 0 "D21" V 5500 1700 60  0000 R CNN
F 1 "D" V 5150 1650 60  0001 R CNN
F 2 "Diode_SMD:D_0805_2012Metric_Pad1.15x1.40mm_HandSolder" H 5000 1700 60  0001 C CNN
F 3 "" H 5000 1700 60  0000 C CNN
	1    5400 1700 
	0    -1   -1   0   
$EndComp
Text Label 5400  1850 0    50   ~ 0
Row_1
Text Label 5000  1550 2    50   ~ 0
Col_5
$Comp
L Switch:SW_Push K22
U 1 1 KEYSWITCH_22
P 6000 1550
F 0 "K22" H 6000 1783 60  0000 C CNN
F 1 "KEYSW" H 6000 1450 60  0001 C CNN
F 2 "Button_Switch_Keyboard:SW_Cherry_MX_1.00u_PCB" H 6000 1550 60  0001 C CNN
F 3 "" H 6000 1550 60  0000 C CNN
	1    6000 1550
	1    0    0    -1  
$EndComp
$Comp
L Device:D D22
U 1 1 DIODE_22
P 6200 1700
F 0 "D22" V 6300 1700 60  0000 R CNN
F 1 "D" V 5950 1650 60  0001 R CNN
F 2 "Diode_SMD:D_0805_2012Metric_Pad1.15x1.40mm_HandSolder" H 5800 1700 60  0001 C CNN
F 3 "" H 5800 1700 60  0000 C CNN
	1    6200 1700 
	0    -1   -1   0   
$EndComp
Text Label 6200  1850 0    50   ~ 0
Row_1
Text Label 5800  1550 2    50   ~ 0
Col_6
$Comp
L Switch:SW_Push K23
U 1 1 KEYSWITCH_23
P 6800 1550
F 0 "K23" H 6800 1783 60  0000 C CNN
F 1 "KEYSW" H 6800 1450 60  0001 C CNN
F 2 "Button_Switch_Keyboard:SW_Cherry_MX_1.00u_PCB" H 6800 1550 60  0001 C CNN
F 3 "" H 6800 1550 60  0000 C CNN
	1    6800 1550
	1    0    0    -1  
$EndComp
$Comp
L Device:D D23
U 1 1 DIODE_23
P 7000 1700
F 0 "D23" V 7100 1700 60  0000 R CNN
F 1 "D" V 6750 1650 60  0001 R CNN
F 2 "Diode_SMD:D_0805_2012Metric_Pad1.15x1.40mm_HandSolder" H 6600 1700 60  0001 C CNN
F 3 "" H 6600 1700 60  0000 C CNN
	1    7000 1700 
	0    -1   -1   0   
$EndComp
Text Label 7000  1850 0    50   ~ 0
Row_1
Text Label 6600  1550 2    50   ~ 0
Col_7
$Comp
L Switch:SW_Push K24
U 1 1 KEYSWITCH_24
P 7600 1550
F 0 "K24" H 7600 1783 60  0000 C CNN
F 1 "KEYSW" H 7600 1450 60  0001 C CNN
F 2 "Button_Switch_Keyboard:SW_Cherry_MX_1.00u_PCB" H 7600 1550 60  0001 C CNN
F 3 "" H 7600 1550 60  0000 C CNN
	1    7600 1550
	1    0    0    -1  
$EndComp
$Comp
L Device:D D24
U 1 1 DIODE_24
P 7800 1700
F 0 "D24" V 7900 1700 60  0000 R CNN
F 1 "D" V 7550 1650 60  0001 R CNN
F 2 "Diode_SMD:D_0805_2012Metric_Pad1.15x1.40mm_HandSolder" H 7400 1700 60  0001 C CNN
F 3 "" H 7400 1700 60  0000 C CNN
	1    7800 1700 
	0    -1   -1   0   
$EndComp
Text Label 7800  1850 0    50   ~ 0
Row_1
Text Label 7400  1550 2    50   ~ 0
Col_8
$Comp
L Switch:SW_Push K25
U 1 1 KEYSWITCH_25
P 8400 1550
F 0 "K25" H 8400 1783 60  0000 C CNN
F 1 "KEYSW" H 8400 1450 60  0001 C CNN
F 2 "Button_Switch_Keyboard:SW_Cherry_MX_1.00u_PCB" H 8400 1550 60  0001 C CNN
F 3 "" H 8400 1550 60  0000 C CNN
	1    8400 1550
	1    0    0    -1  
$EndComp
$Comp
L Device:D D25
U 1 1 DIODE_25
P 8600 1700
F 0 "D25" V 8700 1700 60  0000 R CNN
F 1 "D" V 8350 1650 60  0001 R CNN
F 2 "Diode_SMD:D_0805_2012Metric_Pad1.15x1.40mm_HandSolder" H 8200 1700 60  0001 C CNN
F 3 "" H 8200 1700 60  0000 C CNN
	1    8600 1700 
	0    -1   -1   0   
$EndComp
Text Label 8600  1850 0    50   ~ 0
Row_1
Text Label 8200  1550 2    50   ~ 0
Col_9
$Comp
L Switch:SW_Push K26
U 1 1 KEYSWITCH_26
P 9200 1550
F 0 "K26" H 9200 1783 60  0000 C CNN
F 1 "KEYSW" H 9200 1450 60  0001 C CNN
F 2 "Button_Switch_Keyboard:SW_Cherry_MX_1.00u_PCB" H 9200 1550 60  0001 C CNN
F 3 "" H 9200 1550 60  0000 C CNN
	1    9200 1550
	1    0    0    -1  
$EndComp
$Comp
L Device:D D26
U 1 1 DIODE_26
P 9400 1700
F 0 "D26" V 9500 1700 60  0000 R CNN
F 1 "D" V 9150 1650 60  0001 R CNN
F 2 "Diode_SMD:D_0805_2012Metric_Pad1.15x1.40mm_HandSolder" H 9000 1700 60  0001 C CNN
F 3 "" H 9000 1700 60  0000 C CNN
	1    9400 1700 
	0    -1   -1   0   
$EndComp
Text Label 9400  1850 0    50   ~ 0
Row_1
Text Label 9000  1550 2    50   ~ 0
Col_10
$Comp
L Switch:SW_Push K27
U 1 1 KEYSWITCH_27
P 10000 1550
F 0 "K27" H 10000 1783 60  0000 C CNN
F 1 "KEYSW" H 10000 1450 60  0001 C CNN
F 2 "Button_Switch_Keyboard:SW_Cherry_MX_1.00u_PCB" H 10000 1550 60  0001 C CNN
F 3 "" H 10000 1550 60  0000 C CNN
	1    10000 1550
	1    0    0    -1  
$EndComp
$Comp
L Device:D D27
U 1 1 DIODE_27
P 10200 1700
F 0 "D27" V 10300 1700 60  0000 R CNN
F 1 "D" V 9950 1650 60  0001 R CNN
F 2 "Diode_SMD:D_0805_2012Metric_Pad1.15x1.40mm_HandSolder" H 9800 1700 60  0001 C CNN
F 3 "" H 9800 1700 60  0000 C CNN
	1    10200 1700 
	0    -1   -1   0   
$EndComp
Text Label 10200  1850 0    50   ~ 0
Row_1
Text Label 9800  1550 2    50   ~ 0
Col_11
$Comp
L Switch:SW_Push K28
U 1 1 KEYSWITCH_28
P 10800 1550
F 0 "K28" H 10800 1783 60  0000 C CNN
F 1 "KEYSW" H 10800 1450 60  0001 C CNN
F 2 "Button_Switch_Keyboard:SW_Cherry_MX_1.00u_PCB" H 10800 1550 60  0001 C CNN
F 3 "" H 10800 1550 60  0000 C CNN
	1    10800 1550
	1    0    0    -1  
$EndComp
$Comp
L Device:D D28
U 1 1 DIODE_28
P 11000 1700
F 0 "D28" V 11100 1700 60  0000 R CNN
F 1 "D" V 10750 1650 60  0001 R CNN
F 2 "Diode_SMD:D_0805_2012Metric_Pad1.15x1.40mm_HandSolder" H 10600 1700 60  0001 C CNN
F 3 "" H 10600 1700 60  0000 C CNN
	1    11000 1700 
	0    -1   -1   0   
$EndComp
Text Label 11000  1850 0    50   ~ 0
Row_1
Text Label 10600  1550 2    50   ~ 0
Col_12
$Comp
L Switch:SW_Push K29
U 1 1 KEYSWITCH_29
P 12000 1550
F 0 "K29" H 12000 1783 60  0000 C CNN
F 1 "KEYSW" H 12000 1450 60  0001 C CNN
F 2 "Button_Switch_Keyboard:SW_Cherry_MX_2.00u_PCB" H 12000 1550 60  0001 C CNN
F 3 "" H 12000 1550 60  0000 C CNN
	1    12000 1550
	1    0    0    -1  
$EndComp
$Comp
L Device:D D29
U 1 1 DIODE_29
P 12200 1700
F 0 "D29" V 12300 1700 60  0000 R CNN
F 1 "D" V 11950 1650 60  0001 R CNN
F 2 "Diode_SMD:D_0805_2012Metric_Pad1.15x1.40mm_HandSolder" H 11800 1700 60  0001 C CNN
F 3 "" H 11800 1700 60  0000 C CNN
	1    12200 1700 
	0    -1   -1   0   
$EndComp
Text Label 12200  1850 0    50   ~ 0
Row_1
Text Label 11800  1550 2    50   ~ 0
Col_13
$Comp
L Switch:SW_Push K30
U 1 1 KEYSWITCH_30
P 13200 1550
F 0 "K30" H 13200 1783 60  0000 C CNN
F 1 "KEYSW" H 13200 1450 60  0001 C CNN
F 2 "Button_Switch_Keyboard:SW_Cherry_MX_1.00u_PCB" H 13200 1550 60  0001 C CNN
F 3 "" H 13200 1550 60  0000 C CNN
	1    13200 1550
	1    0    0    -1  
$EndComp
$Comp
L Device:D D30
U 1 1 DIODE_30
P 13400 1700
F 0 "D30" V 13500 1700 60  0000 R CNN
F 1 "D" V 13150 1650 60  0001 R CNN
F 2 "Diode_SMD:D_0805_2012Metric_Pad1.15x1.40mm_HandSolder" H 13000 1700 60  0001 C CNN
F 3 "" H 13000 1700 60  0000 C CNN
	1    13400 1700 
	0    -1   -1   0   
$EndComp
Text Label 13400  1850 0    50   ~ 0
Row_1
Text Label 13000  1550 2    50   ~ 0
Col_14
$Comp
L Switch:SW_Push K31
U 1 1 KEYSWITCH_31
P 1400 2050
F 0 "K31" H 1400 2283 60  0000 C CNN
F 1 "KEYSW" H 1400 1950 60  0001 C CNN
F 2 "Button_Switch_Keyboard:SW_Cherry_MX_1.50u_PCB" H 1400 2050 60  0001 C CNN
F 3 "" H 1400 2050 60  0000 C CNN
	1    1400 2050
	1    0    0    -1  
$EndComp
$Comp
L Device:D D31
U 1 1 DIODE_31
P 1600 2200
F 0 "D31" V 1700 2200 60  0000 R CNN
F 1 "D" V 1350 2150 60  0001 R CNN
F 2 "Diode_SMD:D_0805_2012Metric_Pad1.15x1.40mm_HandSolder" H 1200 2200 60  0001 C CNN
F 3 "" H 1200 2200 60  0000 C CNN
	1    1600 2200 
	0    -1   -1   0   
$EndComp
Text Label 1600  2350 0    50   ~ 0
Row_2
Text Label 1200  2050 2    50   ~ 0
Col_0
$Comp
L Switch:SW_Push K32
U 1 1 KEYSWITCH_32
P 2400 2050
F 0 "K32" H 2400 2283 60  0000 C CNN
F 1 "KEYSW" H 2400 1950 60  0001 C CNN
F 2 "Button_Switch_Keyboard:SW_Cherry_MX_1.00u_PCB" H 2400 2050 60  0001 C CNN
F 3 "" H 2400 2050 60  0000 C CNN
	1    2400 2050
	1    0    0    -1  
$EndComp
$Comp
L Device:D D32
U 1 1 DIODE_32
P 2600 2200
F 0 "D32" V 2700 2200 60  0000 R CNN
F 1 "D" V 2350 2150 60  0001 R CNN
F 2 "Diode_SMD:D_0805_2012Metric_Pad1.15x1.40mm_HandSolder" H 2200 2200 60  0001 C CNN
F 3 "" H 2200 2200 60  0000 C CNN
	1    2600 2200 
	0    -1   -1   0   
$EndComp
Text Label 2600  2350 0    50   ~ 0
Row_2
Text Label 2200  2050 2    50   ~ 0
Col_1
$Comp
L Switch:SW_Push K33
U 1 1 KEYSWITCH_33
P 3200 2050
F 0 "K33" H 3200 2283 60  0000 C CNN
F 1 "KEYSW" H 3200 1950 60  0001 C CNN
F 2 "Button_Switch_Keyboard:SW_Cherry_MX_1.00u_PCB" H 3200 2050 60  0001 C CNN
F 3 "" H 3200 2050 60  0000 C CNN
	1    3200 2050
	1    0    0    -1  
$EndComp
$Comp
L Device:D D33
U 1 1 DIODE_33
P 3400 2200
F 0 "D33" V 3500 2200 60  0000 R CNN
F 1 "D" V 3150 2150 60  0001 R CNN
F 2 "Diode_SMD:D_0805_2012Metric_Pad1.15x1.40mm_HandSolder" H 3000 2200 60  0001 C CNN
F 3 "" H 3000 2200 60  0000 C CNN
	1    3400 2200 
	0    -1   -1   0   
$EndComp
Text Label 3400  2350 0    50   ~ 0
Row_2
Text Label 3000  2050 2    50   ~ 0
Col_2
$Comp
L Switch:SW_Push K34
U 1 1 KEYSWITCH_34
P 4000 2050
F 0 "K34" H 4000 2283 60  0000 C CNN
F 1 "KEYSW" H 4000 1950 60  0001 C CNN
F 2 "Button_Switch_Keyboard:SW_Cherry_MX_1.00u_PCB" H 4000 2050 60  0001 C CNN
F 3 "" H 4000 2050 60  0000 C CNN
	1    4000 2050
	1    0    0    -1  
$EndComp
$Comp
L Device:D D34
U 1 1 DIODE_34
P 4200 2200
F 0 "D34" V 4300 2200 60  0000 R CNN
F 1 "D" V 3950 2150 60  0001 R CNN
F 2 "Diode_SMD:D_0805_2012Metric_Pad1.15x1.40mm_HandSolder" H 3800 2200 60  0001 C CNN
F 3 "" H 3800 2200 60  0000 C CNN
	1    4200 2200 
	0    -1   -1   0   
$EndComp
Text Label 4200  2350 0    50   ~ 0
Row_2
Text Label 3800  2050 2    50   ~ 0
Col_3
$Comp
L Switch:SW_Push K35
U 1 1 KEYSWITCH_35
P 4800 2050
F 0 "K35" H 4800 2283 60  0000 C CNN
F 1 "KEYSW" H 4800 1950 60  0001 C CNN
F 2 "Button_Switch_Keyboard:SW_Cherry_MX_1.00u_PCB" H 4800 2050 60  0001 C CNN
F 3 "" H 4800 2050 60  0000 C CNN
	1    4800 2050
	1    0    0    -1  
$EndComp
$Comp
L Device:D D35
U 1 1 DIODE_35
P 5000 2200
F 0 "D35" V 5100 2200 60  0000 R CNN
F 1 "D" V 4750 2150 60  0001 R CNN
F 2 "Diode_SMD:D_0805_2012Metric_Pad1.15x1.40mm_HandSolder" H 4600 2200 60  0001 C CNN
F 3 "" H 4600 2200 60  0000 C CNN
	1    5000 2200 
	0    -1   -1   0   
$EndComp
Text Label 5000  2350 0    50   ~ 0
Row_2
Text Label 4600  2050 2    50   ~ 0
Col_4
$Comp
L Switch:SW_Push K36
U 1 1 KEYSWITCH_36
P 5600 2050
F 0 "K36" H 5600 2283 60  0000 C CNN
F 1 "KEYSW" H 5600 1950 60  0001 C CNN
F 2 "Button_Switch_Keyboard:SW_Cherry_MX_1.00u_PCB" H 5600 2050 60  0001 C CNN
F 3 "" H 5600 2050 60  0000 C CNN
	1    5600 2050
	1    0    0    -1  
$EndComp
$Comp
L Device:D D36
U 1 1 DIODE_36
P 5800 2200
F 0 "D36" V 5900 2200 60  0000 R CNN
F 1 "D" V 5550 2150 60  0001 R CNN
F 2 "Diode_SMD:D_0805_2012Metric_Pad1.15x1.40mm_HandSolder" H 5400 2200 60  0001 C CNN
F 3 "" H 5400 2200 60  0000 C CNN
	1    5800 2200 
	0    -1   -1   0   
$EndComp
Text Label 5800  2350 0    50   ~ 0
Row_2
Text Label 5400  2050 2    50   ~ 0
Col_5
$Comp
L Switch:SW_Push K37
U 1 1 KEYSWITCH_37
P 6400 2050
F 0 "K37" H 6400 2283 60  0000 C CNN
F 1 "KEYSW" H 6400 1950 60  0001 C CNN
F 2 "Button_Switch_Keyboard:SW_Cherry_MX_1.00u_PCB" H 6400 2050 60  0001 C CNN
F 3 "" H 6400 2050 60  0000 C CNN
	1    6400 2050
	1    0    0    -1  
$EndComp
$Comp
L Device:D D37
U 1 1 DIODE_37
P 6600 2200
F 0 "D37" V 6700 2200 60  0000 R CNN
F 1 "D" V 6350 2150 60  0001 R CNN
F 2 "Diode_SMD:D_0805_2012Metric_Pad1.15x1.40mm_HandSolder" H 6200 2200 60  0001 C CNN
F 3 "" H 6200 2200 60  0000 C CNN
	1    6600 2200 
	0    -1   -1   0   
$EndComp
Text Label 6600  2350 0    50   ~ 0
Row_2
Text Label 6200  2050 2    50   ~ 0
Col_6
$Comp
L Switch:SW_Push K38
U 1 1 KEYSWITCH_38
P 7200 2050
F 0 "K38" H 7200 2283 60  0000 C CNN
F 1 "KEYSW" H 7200 1950 60  0001 C CNN
F 2 "Button_Switch_Keyboard:SW_Cherry_MX_1.00u_PCB" H 7200 2050 60  0001 C CNN
F 3 "" H 7200 2050 60  0000 C CNN
	1    7200 2050
	1    0    0    -1  
$EndComp
$Comp
L Device:D D38
U 1 1 DIODE_38
P 7400 2200
F 0 "D38" V 7500 2200 60  0000 R CNN
F 1 "D" V 7150 2150 60  0001 R CNN
F 2 "Diode_SMD:D_0805_2012Metric_Pad1.15x1.40mm_HandSolder" H 7000 2200 60  0001 C CNN
F 3 "" H 7000 2200 60  0000 C CNN
	1    7400 2200 
	0    -1   -1   0   
$EndComp
Text Label 7400  2350 0    50   ~ 0
Row_2
Text Label 7000  2050 2    50   ~ 0
Col_7
$Comp
L Switch:SW_Push K39
U 1 1 KEYSWITCH_39
P 8000 2050
F 0 "K39" H 8000 2283 60  0000 C CNN
F 1 "KEYSW" H 8000 1950 60  0001 C CNN
F 2 "Button_Switch_Keyboard:SW_Cherry_MX_1.00u_PCB" H 8000 2050 60  0001 C CNN
F 3 "" H 8000 2050 60  0000 C CNN
	1    8000 2050
	1    0    0    -1  
$EndComp
$Comp
L Device:D D39
U 1 1 DIODE_39
P 8200 2200
F 0 "D39" V 8300 2200 60  0000 R CNN
F 1 "D" V 7950 2150 60  0001 R CNN
F 2 "Diode_SMD:D_0805_2012Metric_Pad1.15x1.40mm_HandSolder" H 7800 2200 60  0001 C CNN
F 3 "" H 7800 2200 60  0000 C CNN
	1    8200 2200 
	0    -1   -1   0   
$EndComp
Text Label 8200  2350 0    50   ~ 0
Row_2
Text Label 7800  2050 2    50   ~ 0
Col_8
$Comp
L Switch:SW_Push K40
U 1 1 KEYSWITCH_40
P 8800 2050
F 0 "K40" H 8800 2283 60  0000 C CNN
F 1 "KEYSW" H 8800 1950 60  0001 C CNN
F 2 "Button_Switch_Keyboard:SW_Cherry_MX_1.00u_PCB" H 8800 2050 60  0001 C CNN
F 3 "" H 8800 2050 60  0000 C CNN
	1    8800 2050
	1    0    0    -1  
$EndComp
$Comp
L Device:D D40
U 1 1 DIODE_40
P 9000 2200
F 0 "D40" V 9100 2200 60  0000 R CNN
F 1 "D" V 8750 2150 60  0001 R CNN
F 2 "Diode_SMD:D_0805_2012Metric_Pad1.15x1.40mm_HandSolder" H 8600 2200 60  0001 C CNN
F 3 "" H 8600 2200 60  0000 C CNN
	1    9000 2200 
	0    -1   -1   0   
$EndComp
Text Label 9000  2350 0    50   ~ 0
Row_2
Text Label 8600  2050 2    50   ~ 0
Col_9
$Comp
L Switch:SW_Push K41
U 1 1 KEYSWITCH_41
P 9600 2050
F 0 "K41" H 9600 2283 60  0000 C CNN
F 1 "KEYSW" H 9600 1950 60  0001 C CNN
F 2 "Button_Switch_Keyboard:SW_Cherry_MX_1.00u_PCB" H 9600 2050 60  0001 C CNN
F 3 "" H 9600 2050 60  0000 C CNN
	1    9600 2050
	1    0    0    -1  
$EndComp
$Comp
L Device:D D41
U 1 1 DIODE_41
P 9800 2200
F 0 "D41" V 9900 2200 60  0000 R CNN
F 1 "D" V 9550 2150 60  0001 R CNN
F 2 "Diode_SMD:D_0805_2012Metric_Pad1.15x1.40mm_HandSolder" H 9400 2200 60  0001 C CNN
F 3 "" H 9400 2200 60  0000 C CNN
	1    9800 2200 
	0    -1   -1   0   
$EndComp
Text Label 9800  2350 0    50   ~ 0
Row_2
Text Label 9400  2050 2    50   ~ 0
Col_10
$Comp
L Switch:SW_Push K42
U 1 1 KEYSWITCH_42
P 10400 2050
F 0 "K42" H 10400 2283 60  0000 C CNN
F 1 "KEYSW" H 10400 1950 60  0001 C CNN
F 2 "Button_Switch_Keyboard:SW_Cherry_MX_1.00u_PCB" H 10400 2050 60  0001 C CNN
F 3 "" H 10400 2050 60  0000 C CNN
	1    10400 2050
	1    0    0    -1  
$EndComp
$Comp
L Device:D D42
U 1 1 DIODE_42
P 10600 2200
F 0 "D42" V 10700 2200 60  0000 R CNN
F 1 "D" V 10350 2150 60  0001 R CNN
F 2 "Diode_SMD:D_0805_2012Metric_Pad1.15x1.40mm_HandSolder" H 10200 2200 60  0001 C CNN
F 3 "" H 10200 2200 60  0000 C CNN
	1    10600 2200 
	0    -1   -1   0   
$EndComp
Text Label 10600  2350 0    50   ~ 0
Row_2
Text Label 10200  2050 2    50   ~ 0
Col_11
$Comp
L Switch:SW_Push K43
U 1 1 KEYSWITCH_43
P 11200 2050
F 0 "K43" H 11200 2283 60  0000 C CNN
F 1 "KEYSW" H 11200 1950 60  0001 C CNN
F 2 "Button_Switch_Keyboard:SW_Cherry_MX_1.00u_PCB" H 11200 2050 60  0001 C CNN
F 3 "" H 11200 2050 60  0000 C CNN
	1    11200 2050
	1    0    0    -1  
$EndComp
$Comp
L Device:D D43
U 1 1 DIODE_43
P 11400 2200
F 0 "D43" V 11500 2200 60  0000 R CNN
F 1 "D" V 11150 2150 60  0001 R CNN
F 2 "Diode_SMD:D_0805_2012Metric_Pad1.15x1.40mm_HandSolder" H 11000 2200 60  0001 C CNN
F 3 "" H 11000 2200 60  0000 C CNN
	1    11400 2200 
	0    -1   -1   0   
$EndComp
Text Label 11400  2350 0    50   ~ 0
Row_2
Text Label 11000  2050 2    50   ~ 0
Col_12
$Comp
L Switch:SW_Push K44
U 1 1 KEYSWITCH_44
P 12300 2300
F 0 "K44" H 12300 2533 60  0000 C CNN
F 1 "KEYSW" H 12300 2200 60  0001 C CNN
F 2 "Button_Switch_Keyboard:SW_Cherry_MX_1.25u_PCB" H 12300 2300 60  0001 C CNN
F 3 "" H 12300 2300 60  0000 C CNN
	1    12300 2300
	1    0    0    -1  
$EndComp
$Comp
L Device:D D44
U 1 1 DIODE_44
P 12500 2450
F 0 "D44" V 12600 2450 60  0000 R CNN
F 1 "D" V 12250 2400 60  0001 R CNN
F 2 "Diode_SMD:D_0805_2012Metric_Pad1.15x1.40mm_HandSolder" H 12100 2450 60  0001 C CNN
F 3 "" H 12100 2450 60  0000 C CNN
	1    12500 2450 
	0    -1   -1   0   
$EndComp
Text Label 12500  2600 0    50   ~ 0
Row_2
Text Label 12100  2300 2    50   ~ 0
Col_13
$Comp
L Switch:SW_Push K45
U 1 1 KEYSWITCH_45
P 13200 2050
F 0 "K45" H 13200 2283 60  0000 C CNN
F 1 "KEYSW" H 13200 1950 60  0001 C CNN
F 2 "Button_Switch_Keyboard:SW_Cherry_MX_1.00u_PCB" H 13200 2050 60  0001 C CNN
F 3 "" H 13200 2050 60  0000 C CNN
	1    13200 2050
	1    0    0    -1  
$EndComp
$Comp
L Device:D D45
U 1 1 DIODE_45
P 13400 2200
F 0 "D45" V 13500 2200 60  0000 R CNN
F 1 "D" V 13150 2150 60  0001 R CNN
F 2 "Diode_SMD:D_0805_2012Metric_Pad1.15x1.40mm_HandSolder" H 13000 2200 60  0001 C CNN
F 3 "" H 13000 2200 60  0000 C CNN
	1    13400 2200 
	0    -1   -1   0   
$EndComp
Text Label 13400  2350 0    50   ~ 0
Row_2
Text Label 13000  2050 2    50   ~ 0
Col_14
$Comp
L Switch:SW_Push K46
U 1 1 KEYSWITCH_46
P 1500 2550
F 0 "K46" H 1500 2783 60  0000 C CNN
F 1 "KEYSW" H 1500 2450 60  0001 C CNN
F 2 "Button_Switch_Keyboard:SW_Cherry_MX_1.75u_PCB" H 1500 2550 60  0001 C CNN
F 3 "" H 1500 2550 60  0000 C CNN
	1    1500 2550
	1    0    0    -1  
$EndComp
$Comp
L Device:D D46
U 1 1 DIODE_46
P 1700 2700
F 0 "D46" V 1800 2700 60  0000 R CNN
F 1 "D" V 1450 2650 60  0001 R CNN
F 2 "Diode_SMD:D_0805_2012Metric_Pad1.15x1.40mm_HandSolder" H 1300 2700 60  0001 C CNN
F 3 "" H 1300 2700 60  0000 C CNN
	1    1700 2700 
	0    -1   -1   0   
$EndComp
Text Label 1700  2850 0    50   ~ 0
Row_3
Text Label 1300  2550 2    50   ~ 0
Col_0
$Comp
L Switch:SW_Push K47
U 1 1 KEYSWITCH_47
P 2600 2550
F 0 "K47" H 2600 2783 60  0000 C CNN
F 1 "KEYSW" H 2600 2450 60  0001 C CNN
F 2 "Button_Switch_Keyboard:SW_Cherry_MX_1.00u_PCB" H 2600 2550 60  0001 C CNN
F 3 "" H 2600 2550 60  0000 C CNN
	1    2600 2550
	1    0    0    -1  
$EndComp
$Comp
L Device:D D47
U 1 1 DIODE_47
P 2800 2700
F 0 "D47" V 2900 2700 60  0000 R CNN
F 1 "D" V 2550 2650 60  0001 R CNN
F 2 "Diode_SMD:D_0805_2012Metric_Pad1.15x1.40mm_HandSolder" H 2400 2700 60  0001 C CNN
F 3 "" H 2400 2700 60  0000 C CNN
	1    2800 2700 
	0    -1   -1   0   
$EndComp
Text Label 2800  2850 0    50   ~ 0
Row_3
Text Label 2400  2550 2    50   ~ 0
Col_1
$Comp
L Switch:SW_Push K48
U 1 1 KEYSWITCH_48
P 3400 2550
F 0 "K48" H 3400 2783 60  0000 C CNN
F 1 "KEYSW" H 3400 2450 60  0001 C CNN
F 2 "Button_Switch_Keyboard:SW_Cherry_MX_1.00u_PCB" H 3400 2550 60  0001 C CNN
F 3 "" H 3400 2550 60  0000 C CNN
	1    3400 2550
	1    0    0    -1  
$EndComp
$Comp
L Device:D D48
U 1 1 DIODE_48
P 3600 2700
F 0 "D48" V 3700 2700 60  0000 R CNN
F 1 "D" V 3350 2650 60  0001 R CNN
F 2 "Diode_SMD:D_0805_2012Metric_Pad1.15x1.40mm_HandSolder" H 3200 2700 60  0001 C CNN
F 3 "" H 3200 2700 60  0000 C CNN
	1    3600 2700 
	0    -1   -1   0   
$EndComp
Text Label 3600  2850 0    50   ~ 0
Row_3
Text Label 3200  2550 2    50   ~ 0
Col_2
$Comp
L Switch:SW_Push K49
U 1 1 KEYSWITCH_49
P 4200 2550
F 0 "K49" H 4200 2783 60  0000 C CNN
F 1 "KEYSW" H 4200 2450 60  0001 C CNN
F 2 "Button_Switch_Keyboard:SW_Cherry_MX_1.00u_PCB" H 4200 2550 60  0001 C CNN
F 3 "" H 4200 2550 60  0000 C CNN
	1    4200 2550
	1    0    0    -1  
$EndComp
$Comp
L Device:D D49
U 1 1 DIODE_49
P 4400 2700
F 0 "D49" V 4500 2700 60  0000 R CNN
F 1 "D" V 4150 2650 60  0001 R CNN
F 2 "Diode_SMD:D_0805_2012Metric_Pad1.15x1.40mm_HandSolder" H 4000 2700 60  0001 C CNN
F 3 "" H 4000 2700 60  0000 C CNN
	1    4400 2700 
	0    -1   -1   0   
$EndComp
Text Label 4400  2850 0    50   ~ 0
Row_3
Text Label 4000  2550 2    50   ~ 0
Col_3
$Comp
L Switch:SW_Push K50
U 1 1 KEYSWITCH_50
P 5000 2550
F 0 "K50" H 5000 2783 60  0000 C CNN
F 1 "KEYSW" H 5000 2450 60  0001 C CNN
F 2 "Button_Switch_Keyboard:SW_Cherry_MX_1.00u_PCB" H 5000 2550 60  0001 C CNN
F 3 "" H 5000 2550 60  0000 C CNN
	1    5000 2550
	1    0    0    -1  
$EndComp
$Comp
L Device:D D50
U 1 1 DIODE_50
P 5200 2700
F 0 "D50" V 5300 2700 60  0000 R CNN
F 1 "D" V 4950 2650 60  0001 R CNN
F 2 "Diode_SMD:D_0805_2012Metric_Pad1.15x1.40mm_HandSolder" H 4800 2700 60  0001 C CNN
F 3 "" H 4800 2700 60  0000 C CNN
	1    5200 2700 
	0    -1   -1   0   
$EndComp
Text Label 5200  2850 0    50   ~ 0
Row_3
Text Label 4800  2550 2    50   ~ 0
Col_4
$Comp
L Switch:SW_Push K51
U 1 1 KEYSWITCH_51
P 5800 2550
F 0 "K51" H 5800 2783 60  0000 C CNN
F 1 "KEYSW" H 5800 2450 60  0001 C CNN
F 2 "Button_Switch_Keyboard:SW_Cherry_MX_1.00u_PCB" H 5800 2550 60  0001 C CNN
F 3 "" H 5800 2550 60  0000 C CNN
	1    5800 2550
	1    0    0    -1  
$EndComp
$Comp
L Device:D D51
U 1 1 DIODE_51
P 6000 2700
F 0 "D51" V 6100 2700 60  0000 R CNN
F 1 "D" V 5750 2650 60  0001 R CNN
F 2 "Diode_SMD:D_0805_2012Metric_Pad1.15x1.40mm_HandSolder" H 5600 2700 60  0001 C CNN
F 3 "" H 5600 2700 60  0000 C CNN
	1    6000 2700 
	0    -1   -1   0   
$EndComp
Text Label 6000  2850 0    50   ~ 0
Row_3
Text Label 5600  2550 2    50   ~ 0
Col_5
$Comp
L Switch:SW_Push K52
U 1 1 KEYSWITCH_52
P 6600 2550
F 0 "K52" H 6600 2783 60  0000 C CNN
F 1 "KEYSW" H 6600 2450 60  0001 C CNN
F 2 "Button_Switch_Keyboard:SW_Cherry_MX_1.00u_PCB" H 6600 2550 60  0001 C CNN
F 3 "" H 6600 2550 60  0000 C CNN
	1    6600 2550
	1    0    0    -1  
$EndComp
$Comp
L Device:D D52
U 1 1 DIODE_52
P 6800 2700
F 0 "D52" V 6900 2700 60  0000 R CNN
F 1 "D" V 6550 2650 60  0001 R CNN
F 2 "Diode_SMD:D_0805_2012Metric_Pad1.15x1.40mm_HandSolder" H 6400 2700 60  0001 C CNN
F 3 "" H 6400 2700 60  0000 C CNN
	1    6800 2700 
	0    -1   -1   0   
$EndComp
Text Label 6800  2850 0    50   ~ 0
Row_3
Text Label 6400  2550 2    50   ~ 0
Col_6
$Comp
L Switch:SW_Push K53
U 1 1 KEYSWITCH_53
P 7400 2550
F 0 "K53" H 7400 2783 60  0000 C CNN
F 1 "KEYSW" H 7400 2450 60  0001 C CNN
F 2 "Button_Switch_Keyboard:SW_Cherry_MX_1.00u_PCB" H 7400 2550 60  0001 C CNN
F 3 "" H 7400 2550 60  0000 C CNN
	1    7400 2550
	1    0    0    -1  
$EndComp
$Comp
L Device:D D53
U 1 1 DIODE_53
P 7600 2700
F 0 "D53" V 7700 2700 60  0000 R CNN
F 1 "D" V 7350 2650 60  0001 R CNN
F 2 "Diode_SMD:D_0805_2012Metric_Pad1.15x1.40mm_HandSolder" H 7200 2700 60  0001 C CNN
F 3 "" H 7200 2700 60  0000 C CNN
	1    7600 2700 
	0    -1   -1   0   
$EndComp
Text Label 7600  2850 0    50   ~ 0
Row_3
Text Label 7200  2550 2    50   ~ 0
Col_7
$Comp
L Switch:SW_Push K54
U 1 1 KEYSWITCH_54
P 8200 2550
F 0 "K54" H 8200 2783 60  0000 C CNN
F 1 "KEYSW" H 8200 2450 60  0001 C CNN
F 2 "Button_Switch_Keyboard:SW_Cherry_MX_1.00u_PCB" H 8200 2550 60  0001 C CNN
F 3 "" H 8200 2550 60  0000 C CNN
	1    8200 2550
	1    0    0    -1  
$EndComp
$Comp
L Device:D D54
U 1 1 DIODE_54
P 8400 2700
F 0 "D54" V 8500 2700 60  0000 R CNN
F 1 "D" V 8150 2650 60  0001 R CNN
F 2 "Diode_SMD:D_0805_2012Metric_Pad1.15x1.40mm_HandSolder" H 8000 2700 60  0001 C CNN
F 3 "" H 8000 2700 60  0000 C CNN
	1    8400 2700 
	0    -1   -1   0   
$EndComp
Text Label 8400  2850 0    50   ~ 0
Row_3
Text Label 8000  2550 2    50   ~ 0
Col_8
$Comp
L Switch:SW_Push K55
U 1 1 KEYSWITCH_55
P 9000 2550
F 0 "K55" H 9000 2783 60  0000 C CNN
F 1 "KEYSW" H 9000 2450 60  0001 C CNN
F 2 "Button_Switch_Keyboard:SW_Cherry_MX_1.00u_PCB" H 9000 2550 60  0001 C CNN
F 3 "" H 9000 2550 60  0000 C CNN
	1    9000 2550
	1    0    0    -1  
$EndComp
$Comp
L Device:D D55
U 1 1 DIODE_55
P 9200 2700
F 0 "D55" V 9300 2700 60  0000 R CNN
F 1 "D" V 8950 2650 60  0001 R CNN
F 2 "Diode_SMD:D_0805_2012Metric_Pad1.15x1.40mm_HandSolder" H 8800 2700 60  0001 C CNN
F 3 "" H 8800 2700 60  0000 C CNN
	1    9200 2700 
	0    -1   -1   0   
$EndComp
Text Label 9200  2850 0    50   ~ 0
Row_3
Text Label 8800  2550 2    50   ~ 0
Col_9
$Comp
L Switch:SW_Push K56
U 1 1 KEYSWITCH_56
P 9800 2550
F 0 "K56" H 9800 2783 60  0000 C CNN
F 1 "KEYSW" H 9800 2450 60  0001 C CNN
F 2 "Button_Switch_Keyboard:SW_Cherry_MX_1.00u_PCB" H 9800 2550 60  0001 C CNN
F 3 "" H 9800 2550 60  0000 C CNN
	1    9800 2550
	1    0    0    -1  
$EndComp
$Comp
L Device:D D56
U 1 1 DIODE_56
P 10000 2700
F 0 "D56" V 10100 2700 60  0000 R CNN
F 1 "D" V 9750 2650 60  0001 R CNN
F 2 "Diode_SMD:D_0805_2012Metric_Pad1.15x1.40mm_HandSolder" H 9600 2700 60  0001 C CNN
F 3 "" H 9600 2700 60  0000 C CNN
	1    10000 2700 
	0    -1   -1   0   
$EndComp
Text Label 10000  2850 0    50   ~ 0
Row_3
Text Label 9600  2550 2    50   ~ 0
Col_10
$Comp
L Switch:SW_Push K57
U 1 1 KEYSWITCH_57
P 10600 2550
F 0 "K57" H 10600 2783 60  0000 C CNN
F 1 "KEYSW" H 10600 2450 60  0001 C CNN
F 2 "Button_Switch_Keyboard:SW_Cherry_MX_1.00u_PCB" H 10600 2550 60  0001 C CNN
F 3 "" H 10600 2550 60  0000 C CNN
	1    10600 2550
	1    0    0    -1  
$EndComp
$Comp
L Device:D D57
U 1 1 DIODE_57
P 10800 2700
F 0 "D57" V 10900 2700 60  0000 R CNN
F 1 "D" V 10550 2650 60  0001 R CNN
F 2 "Diode_SMD:D_0805_2012Metric_Pad1.15x1.40mm_HandSolder" H 10400 2700 60  0001 C CNN
F 3 "" H 10400 2700 60  0000 C CNN
	1    10800 2700 
	0    -1   -1   0   
$EndComp
Text Label 10800  2850 0    50   ~ 0
Row_3
Text Label 10400  2550 2    50   ~ 0
Col_11
$Comp
L Switch:SW_Push K58
U 1 1 KEYSWITCH_58
P 11400 2550
F 0 "K58" H 11400 2783 60  0000 C CNN
F 1 "KEYSW" H 11400 2450 60  0001 C CNN
F 2 "Button_Switch_Keyboard:SW_Cherry_MX_1.00u_PCB" H 11400 2550 60  0001 C CNN
F 3 "" H 11400 2550 60  0000 C CNN
	1    11400 2550
	1    0    0    -1  
$EndComp
$Comp
L Device:D D58
U 1 1 DIODE_58
P 11600 2700
F 0 "D58" V 11700 2700 60  0000 R CNN
F 1 "D" V 11350 2650 60  0001 R CNN
F 2 "Diode_SMD:D_0805_2012Metric_Pad1.15x1.40mm_HandSolder" H 11200 2700 60  0001 C CNN
F 3 "" H 11200 2700 60  0000 C CNN
	1    11600 2700 
	0    -1   -1   0   
$EndComp
Text Label 11600  2850 0    50   ~ 0
Row_3
Text Label 11200  2550 2    50   ~ 0
Col_12
$Comp
L Switch:SW_Push K59
U 1 1 KEYSWITCH_59
P 13200 2550
F 0 "K59" H 13200 2783 60  0000 C CNN
F 1 "KEYSW" H 13200 2450 60  0001 C CNN
F 2 "Button_Switch_Keyboard:SW_Cherry_MX_1.00u_PCB" H 13200 2550 60  0001 C CNN
F 3 "" H 13200 2550 60  0000 C CNN
	1    13200 2550
	1    0    0    -1  
$EndComp
$Comp
L Device:D D59
U 1 1 DIODE_59
P 13400 2700
F 0 "D59" V 13500 2700 60  0000 R CNN
F 1 "D" V 13150 2650 60  0001 R CNN
F 2 "Diode_SMD:D_0805_2012Metric_Pad1.15x1.40mm_HandSolder" H 13000 2700 60  0001 C CNN
F 3 "" H 13000 2700 60  0000 C CNN
	1    13400 2700 
	0    -1   -1   0   
$EndComp
Text Label 13400  2850 0    50   ~ 0
Row_3
Text Label 13000  2550 2    50   ~ 0
Col_14
$Comp
L Switch:SW_Push K60
U 1 1 KEYSWITCH_60
P 1300 3050
F 0 "K60" H 1300 3283 60  0000 C CNN
F 1 "KEYSW" H 1300 2950 60  0001 C CNN
F 2 "Button_Switch_Keyboard:SW_Cherry_MX_1.25u_PCB" H 1300 3050 60  0001 C CNN
F 3 "" H 1300 3050 60  0000 C CNN
	1    1300 3050
	1    0    0    -1  
$EndComp
$Comp
L Device:D D60
U 1 1 DIODE_60
P 1500 3200
F 0 "D60" V 1600 3200 60  0000 R CNN
F 1 "D" V 1250 3150 60  0001 R CNN
F 2 "Diode_SMD:D_0805_2012Metric_Pad1.15x1.40mm_HandSolder" H 1100 3200 60  0001 C CNN
F 3 "" H 1100 3200 60  0000 C CNN
	1    1500 3200 
	0    -1   -1   0   
$EndComp
Text Label 1500  3350 0    50   ~ 0
Row_4
Text Label 1100  3050 2    50   ~ 0
Col_0
$Comp
L Switch:SW_Push K61
U 1 1 KEYSWITCH_61
P 2200 3050
F 0 "K61" H 2200 3283 60  0000 C CNN
F 1 "KEYSW" H 2200 2950 60  0001 C CNN
F 2 "Button_Switch_Keyboard:SW_Cherry_MX_1.00u_PCB" H 2200 3050 60  0001 C CNN
F 3 "" H 2200 3050 60  0000 C CNN
	1    2200 3050
	1    0    0    -1  
$EndComp
$Comp
L Device:D D61
U 1 1 DIODE_61
P 2400 3200
F 0 "D61" V 2500 3200 60  0000 R CNN
F 1 "D" V 2150 3150 60  0001 R CNN
F 2 "Diode_SMD:D_0805_2012Metric_Pad1.15x1.40mm_HandSolder" H 2000 3200 60  0001 C CNN
F 3 "" H 2000 3200 60  0000 C CNN
	1    2400 3200 
	0    -1   -1   0   
$EndComp
Text Label 2400  3350 0    50   ~ 0
Row_4
Text Label 2000  3050 2    50   ~ 0
Col_1
$Comp
L Switch:SW_Push K62
U 1 1 KEYSWITCH_62
P 3000 3050
F 0 "K62" H 3000 3283 60  0000 C CNN
F 1 "KEYSW" H 3000 2950 60  0001 C CNN
F 2 "Button_Switch_Keyboard:SW_Cherry_MX_1.00u_PCB" H 3000 3050 60  0001 C CNN
F 3 "" H 3000 3050 60  0000 C CNN
	1    3000 3050
	1    0    0    -1  
$EndComp
$Comp
L Device:D D62
U 1 1 DIODE_62
P 3200 3200
F 0 "D62" V 3300 3200 60  0000 R CNN
F 1 "D" V 2950 3150 60  0001 R CNN
F 2 "Diode_SMD:D_0805_2012Metric_Pad1.15x1.40mm_HandSolder" H 2800 3200 60  0001 C CNN
F 3 "" H 2800 3200 60  0000 C CNN
	1    3200 3200 
	0    -1   -1   0   
$EndComp
Text Label 3200  3350 0    50   ~ 0
Row_4
Text Label 2800  3050 2    50   ~ 0
Col_2
$Comp
L Switch:SW_Push K63
U 1 1 KEYSWITCH_63
P 3800 3050
F 0 "K63" H 3800 3283 60  0000 C CNN
F 1 "KEYSW" H 3800 2950 60  0001 C CNN
F 2 "Button_Switch_Keyboard:SW_Cherry_MX_1.00u_PCB" H 3800 3050 60  0001 C CNN
F 3 "" H 3800 3050 60  0000 C CNN
	1    3800 3050
	1    0    0    -1  
$EndComp
$Comp
L Device:D D63
U 1 1 DIODE_63
P 4000 3200
F 0 "D63" V 4100 3200 60  0000 R CNN
F 1 "D" V 3750 3150 60  0001 R CNN
F 2 "Diode_SMD:D_0805_2012Metric_Pad1.15x1.40mm_HandSolder" H 3600 3200 60  0001 C CNN
F 3 "" H 3600 3200 60  0000 C CNN
	1    4000 3200 
	0    -1   -1   0   
$EndComp
Text Label 4000  3350 0    50   ~ 0
Row_4
Text Label 3600  3050 2    50   ~ 0
Col_3
$Comp
L Switch:SW_Push K64
U 1 1 KEYSWITCH_64
P 4600 3050
F 0 "K64" H 4600 3283 60  0000 C CNN
F 1 "KEYSW" H 4600 2950 60  0001 C CNN
F 2 "Button_Switch_Keyboard:SW_Cherry_MX_1.00u_PCB" H 4600 3050 60  0001 C CNN
F 3 "" H 4600 3050 60  0000 C CNN
	1    4600 3050
	1    0    0    -1  
$EndComp
$Comp
L Device:D D64
U 1 1 DIODE_64
P 4800 3200
F 0 "D64" V 4900 3200 60  0000 R CNN
F 1 "D" V 4550 3150 60  0001 R CNN
F 2 "Diode_SMD:D_0805_2012Metric_Pad1.15x1.40mm_HandSolder" H 4400 3200 60  0001 C CNN
F 3 "" H 4400 3200 60  0000 C CNN
	1    4800 3200 
	0    -1   -1   0   
$EndComp
Text Label 4800  3350 0    50   ~ 0
Row_4
Text Label 4400  3050 2    50   ~ 0
Col_4
$Comp
L Switch:SW_Push K65
U 1 1 KEYSWITCH_65
P 5400 3050
F 0 "K65" H 5400 3283 60  0000 C CNN
F 1 "KEYSW" H 5400 2950 60  0001 C CNN
F 2 "Button_Switch_Keyboard:SW_Cherry_MX_1.00u_PCB" H 5400 3050 60  0001 C CNN
F 3 "" H 5400 3050 60  0000 C CNN
	1    5400 3050
	1    0    0    -1  
$EndComp
$Comp
L Device:D D65
U 1 1 DIODE_65
P 5600 3200
F 0 "D65" V 5700 3200 60  0000 R CNN
F 1 "D" V 5350 3150 60  0001 R CNN
F 2 "Diode_SMD:D_0805_2012Metric_Pad1.15x1.40mm_HandSolder" H 5200 3200 60  0001 C CNN
F 3 "" H 5200 3200 60  0000 C CNN
	1    5600 3200 
	0    -1   -1   0   
$EndComp
Text Label 5600  3350 0    50   ~ 0
Row_4
Text Label 5200  3050 2    50   ~ 0
Col_5
$Comp
L Switch:SW_Push K66
U 1 1 KEYSWITCH_66
P 6200 3050
F 0 "K66" H 6200 3283 60  0000 C CNN
F 1 "KEYSW" H 6200 2950 60  0001 C CNN
F 2 "Button_Switch_Keyboard:SW_Cherry_MX_1.00u_PCB" H 6200 3050 60  0001 C CNN
F 3 "" H 6200 3050 60  0000 C CNN
	1    6200 3050
	1    0    0    -1  
$EndComp
$Comp
L Device:D D66
U 1 1 DIODE_66
P 6400 3200
F 0 "D66" V 6500 3200 60  0000 R CNN
F 1 "D" V 6150 3150 60  0001 R CNN
F 2 "Diode_SMD:D_0805_2012Metric_Pad1.15x1.40mm_HandSolder" H 6000 3200 60  0001 C CNN
F 3 "" H 6000 3200 60  0000 C CNN
	1    6400 3200 
	0    -1   -1   0   
$EndComp
Text Label 6400  3350 0    50   ~ 0
Row_4
Text Label 6000  3050 2    50   ~ 0
Col_6
$Comp
L Switch:SW_Push K67
U 1 1 KEYSWITCH_67
P 7000 3050
F 0 "K67" H 7000 3283 60  0000 C CNN
F 1 "KEYSW" H 7000 2950 60  0001 C CNN
F 2 "Button_Switch_Keyboard:SW_Cherry_MX_1.00u_PCB" H 7000 3050 60  0001 C CNN
F 3 "" H 7000 3050 60  0000 C CNN
	1    7000 3050
	1    0    0    -1  
$EndComp
$Comp
L Device:D D67
U 1 1 DIODE_67
P 7200 3200
F 0 "D67" V 7300 3200 60  0000 R CNN
F 1 "D" V 6950 3150 60  0001 R CNN
F 2 "Diode_SMD:D_0805_2012Metric_Pad1.15x1.40mm_HandSolder" H 6800 3200 60  0001 C CNN
F 3 "" H 6800 3200 60  0000 C CNN
	1    7200 3200 
	0    -1   -1   0   
$EndComp
Text Label 7200  3350 0    50   ~ 0
Row_4
Text Label 6800  3050 2    50   ~ 0
Col_7
$Comp
L Switch:SW_Push K68
U 1 1 KEYSWITCH_68
P 7800 3050
F 0 "K68" H 7800 3283 60  0000 C CNN
F 1 "KEYSW" H 7800 2950 60  0001 C CNN
F 2 "Button_Switch_Keyboard:SW_Cherry_MX_1.00u_PCB" H 7800 3050 60  0001 C CNN
F 3 "" H 7800 3050 60  0000 C CNN
	1    7800 3050
	1    0    0    -1  
$EndComp
$Comp
L Device:D D68
U 1 1 DIODE_68
P 8000 3200
F 0 "D68" V 8100 3200 60  0000 R CNN
F 1 "D" V 7750 3150 60  0001 R CNN
F 2 "Diode_SMD:D_0805_2012Metric_Pad1.15x1.40mm_HandSolder" H 7600 3200 60  0001 C CNN
F 3 "" H 7600 3200 60  0000 C CNN
	1    8000 3200 
	0    -1   -1   0   
$EndComp
Text Label 8000  3350 0    50   ~ 0
Row_4
Text Label 7600  3050 2    50   ~ 0
Col_8
$Comp
L Switch:SW_Push K69
U 1 1 KEYSWITCH_69
P 8600 3050
F 0 "K69" H 8600 3283 60  0000 C CNN
F 1 "KEYSW" H 8600 2950 60  0001 C CNN
F 2 "Button_Switch_Keyboard:SW_Cherry_MX_1.00u_PCB" H 8600 3050 60  0001 C CNN
F 3 "" H 8600 3050 60  0000 C CNN
	1    8600 3050
	1    0    0    -1  
$EndComp
$Comp
L Device:D D69
U 1 1 DIODE_69
P 8800 3200
F 0 "D69" V 8900 3200 60  0000 R CNN
F 1 "D" V 8550 3150 60  0001 R CNN
F 2 "Diode_SMD:D_0805_2012Metric_Pad1.15x1.40mm_HandSolder" H 8400 3200 60  0001 C CNN
F 3 "" H 8400 3200 60  0000 C CNN
	1    8800 3200 
	0    -1   -1   0   
$EndComp
Text Label 8800  3350 0    50   ~ 0
Row_4
Text Label 8400  3050 2    50   ~ 0
Col_9
$Comp
L Switch:SW_Push K70
U 1 1 KEYSWITCH_70
P 9400 3050
F 0 "K70" H 9400 3283 60  0000 C CNN
F 1 "KEYSW" H 9400 2950 60  0001 C CNN
F 2 "Button_Switch_Keyboard:SW_Cherry_MX_1.00u_PCB" H 9400 3050 60  0001 C CNN
F 3 "" H 9400 3050 60  0000 C CNN
	1    9400 3050
	1    0    0    -1  
$EndComp
$Comp
L Device:D D70
U 1 1 DIODE_70
P 9600 3200
F 0 "D70" V 9700 3200 60  0000 R CNN
F 1 "D" V 9350 3150 60  0001 R CNN
F 2 "Diode_SMD:D_0805_2012Metric_Pad1.15x1.40mm_HandSolder" H 9200 3200 60  0001 C CNN
F 3 "" H 9200 3200 60  0000 C CNN
	1    9600 3200 
	0    -1   -1   0   
$EndComp
Text Label 9600  3350 0    50   ~ 0
Row_4
Text Label 9200  3050 2    50   ~ 0
Col_10
$Comp
L Switch:SW_Push K71
U 1 1 KEYSWITCH_71
P 10200 3050
F 0 "K71" H 10200 3283 60  0000 C CNN
F 1 "KEYSW" H 10200 2950 60  0001 C CNN
F 2 "Button_Switch_Keyboard:SW_Cherry_MX_1.00u_PCB" H 10200 3050 60  0001 C CNN
F 3 "" H 10200 3050 60  0000 C CNN
	1    10200 3050
	1    0    0    -1  
$EndComp
$Comp
L Device:D D71
U 1 1 DIODE_71
P 10400 3200
F 0 "D71" V 10500 3200 60  0000 R CNN
F 1 "D" V 10150 3150 60  0001 R CNN
F 2 "Diode_SMD:D_0805_2012Metric_Pad1.15x1.40mm_HandSolder" H 10000 3200 60  0001 C CNN
F 3 "" H 10000 3200 60  0000 C CNN
	1    10400 3200 
	0    -1   -1   0   
$EndComp
Text Label 10400  3350 0    50   ~ 0
Row_4
Text Label 10000  3050 2    50   ~ 0
Col_11
$Comp
L Switch:SW_Push K72
U 1 1 KEYSWITCH_72
P 11300 3050
F 0 "K72" H 11300 3283 60  0000 C CNN
F 1 "KEYSW" H 11300 2950 60  0001 C CNN
F 2 "Button_Switch_Keyboard:SW_Cherry_MX_1.75u_PCB" H 11300 3050 60  0001 C CNN
F 3 "" H 11300 3050 60  0000 C CNN
	1    11300 3050
	1    0    0    -1  
$EndComp
$Comp
L Device:D D72
U 1 1 DIODE_72
P 11500 3200
F 0 "D72" V 11600 3200 60  0000 R CNN
F 1 "D" V 11250 3150 60  0001 R CNN
F 2 "Diode_SMD:D_0805_2012Metric_Pad1.15x1.40mm_HandSolder" H 11100 3200 60  0001 C CNN
F 3 "" H 11100 3200 60  0000 C CNN
	1    11500 3200 
	0    -1   -1   0   
$EndComp
Text Label 11500  3350 0    50   ~ 0
Row_4
Text Label 11100  3050 2    50   ~ 0
Col_12
$Comp
L Switch:SW_Push K73
U 1 1 KEYSWITCH_73
P 12400 3050
F 0 "K73" H 12400 3283 60  0000 C CNN
F 1 "KEYSW" H 12400 2950 60  0001 C CNN
F 2 "Button_Switch_Keyboard:SW_Cherry_MX_1.00u_PCB" H 12400 3050 60  0001 C CNN
F 3 "" H 12400 3050 60  0000 C CNN
	1    12400 3050
	1    0    0    -1  
$EndComp
$Comp
L Device:D D73
U 1 1 DIODE_73
P 12600 3200
F 0 "D73" V 12700 3200 60  0000 R CNN
F 1 "D" V 12350 3150 60  0001 R CNN
F 2 "Diode_SMD:D_0805_2012Metric_Pad1.15x1.40mm_HandSolder" H 12200 3200 60  0001 C CNN
F 3 "" H 12200 3200 60  0000 C CNN
	1    12600 3200 
	0    -1   -1   0   
$EndComp
Text Label 12600  3350 0    50   ~ 0
Row_4
Text Label 12200  3050 2    50   ~ 0
Col_13
$Comp
L Switch:SW_Push K74
U 1 1 KEYSWITCH_74
P 13200 3050
F 0 "K74" H 13200 3283 60  0000 C CNN
F 1 "KEYSW" H 13200 2950 60  0001 C CNN
F 2 "Button_Switch_Keyboard:SW_Cherry_MX_1.00u_PCB" H 13200 3050 60  0001 C CNN
F 3 "" H 13200 3050 60  0000 C CNN
	1    13200 3050
	1    0    0    -1  
$EndComp
$Comp
L Device:D D74
U 1 1 DIODE_74
P 13400 3200
F 0 "D74" V 13500 3200 60  0000 R CNN
F 1 "D" V 13150 3150 60  0001 R CNN
F 2 "Diode_SMD:D_0805_2012Metric_Pad1.15x1.40mm_HandSolder" H 13000 3200 60  0001 C CNN
F 3 "" H 13000 3200 60  0000 C CNN
	1    13400 3200 
	0    -1   -1   0   
$EndComp
Text Label 13400  3350 0    50   ~ 0
Row_4
Text Label 13000  3050 2    50   ~ 0
Col_14
$Comp
L Switch:SW_Push K75
U 1 1 KEYSWITCH_75
P 1300 3550
F 0 "K75" H 1300 3783 60  0000 C CNN
F 1 "KEYSW" H 1300 3450 60  0001 C CNN
F 2 "Button_Switch_Keyboard:SW_Cherry_MX_1.25u_PCB" H 1300 3550 60  0001 C CNN
F 3 "" H 1300 3550 60  0000 C CNN
	1    1300 3550
	1    0    0    -1  
$EndComp
$Comp
L Device:D D75
U 1 1 DIODE_75
P 1500 3700
F 0 "D75" V 1600 3700 60  0000 R CNN
F 1 "D" V 1250 3650 60  0001 R CNN
F 2 "Diode_SMD:D_0805_2012Metric_Pad1.15x1.40mm_HandSolder" H 1100 3700 60  0001 C CNN
F 3 "" H 1100 3700 60  0000 C CNN
	1    1500 3700 
	0    -1   -1   0   
$EndComp
Text Label 1500  3850 0    50   ~ 0
Row_5
Text Label 1100  3550 2    50   ~ 0
Col_0
$Comp
L Switch:SW_Push K76
U 1 1 KEYSWITCH_76
P 2200 3550
F 0 "K76" H 2200 3783 60  0000 C CNN
F 1 "KEYSW" H 2200 3450 60  0001 C CNN
F 2 "Button_Switch_Keyboard:SW_Cherry_MX_1.00u_PCB" H 2200 3550 60  0001 C CNN
F 3 "" H 2200 3550 60  0000 C CNN
	1    2200 3550
	1    0    0    -1  
$EndComp
$Comp
L Device:D D76
U 1 1 DIODE_76
P 2400 3700
F 0 "D76" V 2500 3700 60  0000 R CNN
F 1 "D" V 2150 3650 60  0001 R CNN
F 2 "Diode_SMD:D_0805_2012Metric_Pad1.15x1.40mm_HandSolder" H 2000 3700 60  0001 C CNN
F 3 "" H 2000 3700 60  0000 C CNN
	1    2400 3700 
	0    -1   -1   0   
$EndComp
Text Label 2400  3850 0    50   ~ 0
Row_5
Text Label 2000  3550 2    50   ~ 0
Col_1
$Comp
L Switch:SW_Push K77
U 1 1 KEYSWITCH_77
P 3100 3550
F 0 "K77" H 3100 3783 60  0000 C CNN
F 1 "KEYSW" H 3100 3450 60  0001 C CNN
F 2 "Button_Switch_Keyboard:SW_Cherry_MX_1.25u_PCB" H 3100 3550 60  0001 C CNN
F 3 "" H 3100 3550 60  0000 C CNN
	1    3100 3550
	1    0    0    -1  
$EndComp
$Comp
L Device:D D77
U 1 1 DIODE_77
P 3300 3700
F 0 "D77" V 3400 3700 60  0000 R CNN
F 1 "D" V 3050 3650 60  0001 R CNN
F 2 "Diode_SMD:D_0805_2012Metric_Pad1.15x1.40mm_HandSolder" H 2900 3700 60  0001 C CNN
F 3 "" H 2900 3700 60  0000 C CNN
	1    3300 3700 
	0    -1   -1   0   
$EndComp
Text Label 3300  3850 0    50   ~ 0
Row_5
Text Label 2900  3550 2    50   ~ 0
Col_2
$Comp
L Switch:SW_Push K78
U 1 1 KEYSWITCH_78
P 6200 3550
F 0 "K78" H 6200 3783 60  0000 C CNN
F 1 "KEYSW" H 6200 3450 60  0001 C CNN
F 2 "Button_Switch_Keyboard:SW_Cherry_MX_6.25u_PCB" H 6200 3550 60  0001 C CNN
F 3 "" H 6200 3550 60  0000 C CNN
	1    6200 3550
	1    0    0    -1  
$EndComp
$Comp
L Device:D D78
U 1 1 DIODE_78
P 6400 3700
F 0 "D78" V 6500 3700 60  0000 R CNN
F 1 "D" V 6150 3650 60  0001 R CNN
F 2 "Diode_SMD:D_0805_2012Metric_Pad1.15x1.40mm_HandSolder" H 6000 3700 60  0001 C CNN
F 3 "" H 6000 3700 60  0000 C CNN
	1    6400 3700 
	0    -1   -1   0   
$EndComp
Text Label 6400  3850 0    50   ~ 0
Row_5
Text Label 6000  3550 2    50   ~ 0
Col_5
$Comp
L Switch:SW_Push K79
U 1 1 KEYSWITCH_79
P 9200 3550
F 0 "K79" H 9200 3783 60  0000 C CNN
F 1 "KEYSW" H 9200 3450 60  0001 C CNN
F 2 "Button_Switch_Keyboard:SW_Cherry_MX_1.00u_PCB" H 9200 3550 60  0001 C CNN
F 3 "" H 9200 3550 60  0000 C CNN
	1    9200 3550
	1    0    0    -1  
$EndComp
$Comp
L Device:D D79
U 1 1 DIODE_79
P 9400 3700
F 0 "D79" V 9500 3700 60  0000 R CNN
F 1 "D" V 9150 3650 60  0001 R CNN
F 2 "Diode_SMD:D_0805_2012Metric_Pad1.15x1.40mm_HandSolder" H 9000 3700 60  0001 C CNN
F 3 "" H 9000 3700 60  0000 C CNN
	1    9400 3700 
	0    -1   -1   0   
$EndComp
Text Label 9400  3850 0    50   ~ 0
Row_5
Text Label 9000  3550 2    50   ~ 0
Col_8
$Comp
L Switch:SW_Push K80
U 1 1 KEYSWITCH_80
P 10000 3550
F 0 "K80" H 10000 3783 60  0000 C CNN
F 1 "KEYSW" H 10000 3450 60  0001 C CNN
F 2 "Button_Switch_Keyboard:SW_Cherry_MX_1.00u_PCB" H 10000 3550 60  0001 C CNN
F 3 "" H 10000 3550 60  0000 C CNN
	1    10000 3550
	1    0    0    -1  
$EndComp
$Comp
L Device:D D80
U 1 1 DIODE_80
P 10200 3700
F 0 "D80" V 10300 3700 60  0000 R CNN
F 1 "D" V 9950 3650 60  0001 R CNN
F 2 "Diode_SMD:D_0805_2012Metric_Pad1.15x1.40mm_HandSolder" H 9800 3700 60  0001 C CNN
F 3 "" H 9800 3700 60  0000 C CNN
	1    10200 3700 
	0    -1   -1   0   
$EndComp
Text Label 10200  3850 0    50   ~ 0
Row_5
Text Label 9800  3550 2    50   ~ 0
Col_9
$Comp
L Switch:SW_Push K81
U 1 1 KEYSWITCH_81
P 10800 3550
F 0 "K81" H 10800 3783 60  0000 C CNN
F 1 "KEYSW" H 10800 3450 60  0001 C CNN
F 2 "Button_Switch_Keyboard:SW_Cherry_MX_1.00u_PCB" H 10800 3550 60  0001 C CNN
F 3 "" H 10800 3550 60  0000 C CNN
	1    10800 3550
	1    0    0    -1  
$EndComp
$Comp
L Device:D D81
U 1 1 DIODE_81
P 11000 3700
F 0 "D81" V 11100 3700 60  0000 R CNN
F 1 "D" V 10750 3650 60  0001 R CNN
F 2 "Diode_SMD:D_0805_2012Metric_Pad1.15x1.40mm_HandSolder" H 10600 3700 60  0001 C CNN
F 3 "" H 10600 3700 60  0000 C CNN
	1    11000 3700 
	0    -1   -1   0   
$EndComp
Text Label 11000  3850 0    50   ~ 0
Row_5
Text Label 10600  3550 2    50   ~ 0
Col_10
$Comp
L Switch:SW_Push K82
U 1 1 KEYSWITCH_82
P 11600 3550
F 0 "K82" H 11600 3783 60  0000 C CNN
F 1 "KEYSW" H 11600 3450 60  0001 C CNN
F 2 "Button_Switch_Keyboard:SW_Cherry_MX_1.00u_PCB" H 11600 3550 60  0001 C CNN
F 3 "" H 11600 3550 60  0000 C CNN
	1    11600 3550
	1    0    0    -1  
$EndComp
$Comp
L Device:D D82
U 1 1 DIODE_82
P 11800 3700
F 0 "D82" V 11900 3700 60  0000 R CNN
F 1 "D" V 11550 3650 60  0001 R CNN
F 2 "Diode_SMD:D_0805_2012Metric_Pad1.15x1.40mm_HandSolder" H 11400 3700 60  0001 C CNN
F 3 "" H 11400 3700 60  0000 C CNN
	1    11800 3700 
	0    -1   -1   0   
$EndComp
Text Label 11800  3850 0    50   ~ 0
Row_5
Text Label 11400  3550 2    50   ~ 0
Col_11
$Comp
L Switch:SW_Push K83
U 1 1 KEYSWITCH_83
P 12400 3550
F 0 "K83" H 12400 3783 60  0000 C CNN
F 1 "KEYSW" H 12400 3450 60  0001 C CNN
F 2 "Button_Switch_Keyboard:SW_Cherry_MX_1.00u_PCB" H 12400 3550 60  0001 C CNN
F 3 "" H 12400 3550 60  0000 C CNN
	1    12400 3550
	1    0    0    -1  
$EndComp
$Comp
L Device:D D83
U 1 1 DIODE_83
P 12600 3700
F 0 "D83" V 12700 3700 60  0000 R CNN
F 1 "D" V 12350 3650 60  0001 R CNN
F 2 "Diode_SMD:D_0805_2012Metric_Pad1.15x1.40mm_HandSolder" H 12200 3700 60  0001 C CNN
F 3 "" H 12200 3700 60  0000 C CNN
	1    12600 3700 
	0    -1   -1   0   
$EndComp
Text Label 12600  3850 0    50   ~ 0
Row_5
Text Label 12200  3550 2    50   ~ 0
Col_12
$Comp
L Switch:SW_Push K84
U 1 1 KEYSWITCH_84
P 13200 3550
F 0 "K84" H 13200 3783 60  0000 C CNN
F 1 "KEYSW" H 13200 3450 60  0001 C CNN
F 2 "Button_Switch_Keyboard:SW_Cherry_MX_1.00u_PCB" H 13200 3550 60  0001 C CNN
F 3 "" H 13200 3550 60  0000 C CNN
	1    13200 3550
	1    0    0    -1  
$EndComp
$Comp
L Device:D D84
U 1 1 DIODE_84
P 13400 3700
F 0 "D84" V 13500 3700 60  0000 R CNN
F 1 "D" V 13150 3650 60  0001 R CNN
F 2 "Diode_SMD:D_0805_2012Metric_Pad1.15x1.40mm_HandSolder" H 13000 3700 60  0001 C CNN
F 3 "" H 13000 3700 60  0000 C CNN
	1    13400 3700 
	0    -1   -1   0   
$EndComp
Text Label 13400  3850 0    50   ~ 0
Row_5
Text Label 13000  3550 2    50   ~ 0
Col_13
Wire Wire Line
	4250 10650 4550 10650
Connection ~ 4550 10650
Wire Wire Line
	4550 10650 4850 10650
$Comp
L power:GND #PWR0101
U 1 1 5E96DC42
P 4550 10650
F 0 "#PWR0101" H 4550 10400 50  0001 C CNN
F 1 "GND" H 4555 10477 50  0000 C CNN
F 2 "" H 4550 10650 50  0001 C CNN
F 3 "" H 4550 10650 50  0001 C CNN
	1    4550 10650
	1    0    0    -1  
$EndComp
Wire Wire Line
	4850 10050 4850 10250
$Comp
L power:GND #PWR0102
U 1 1 5E97937E
P 1100 10050
F 0 "#PWR0102" H 1100 9800 50  0001 C CNN
F 1 "GND" H 1105 9877 50  0000 C CNN
F 2 "" H 1100 10050 50  0001 C CNN
F 3 "" H 1100 10050 50  0001 C CNN
	1    1100 10050
	1    0    0    -1  
$EndComp
$Comp
L power:VCC #PWR0103
U 1 1 5E97A546
P 1100 9750
F 0 "#PWR0103" H 1100 9600 50  0001 C CNN
F 1 "VCC" H 1117 9923 50  0000 C CNN
F 2 "" H 1100 9750 50  0001 C CNN
F 3 "" H 1100 9750 50  0001 C CNN
	1    1100 9750
	1    0    0    -1  
$EndComp
Wire Wire Line
	3450 10400 3850 10400
$Comp
L power:VCC #PWR0104
U 1 1 5E980AD5
P 3450 10700
F 0 "#PWR0104" H 3450 10550 50  0001 C CNN
F 1 "VCC" H 3468 10827 50  0000 L CNN
F 2 "" H 3450 10700 50  0001 C CNN
F 3 "" H 3450 10700 50  0001 C CNN
	1    3450 10700
	-1   0    0    1   
$EndComp
$Comp
L power:GND #PWR0105
U 1 1 5E981D5C
P 3850 10800
F 0 "#PWR0105" H 3850 10550 50  0001 C CNN
F 1 "GND" H 3855 10672 50  0000 R CNN
F 2 "" H 3850 10800 50  0001 C CNN
F 3 "" H 3850 10800 50  0001 C CNN
	1    3850 10800
	1    0    0    -1  
$EndComp
$Comp
L power:VCC #PWR0110
U 1 1 5E99CE7D
P 4300 8500
F 0 "#PWR0110" H 4300 8350 50  0001 C CNN
F 1 "VCC" V 4318 8627 50  0000 L CNN
F 2 "" H 4300 8500 50  0001 C CNN
F 3 "" H 4300 8500 50  0001 C CNN
	1    4300 8500
	0    -1   -1   0   
$EndComp
$Comp
L Mechanical:MountingHole H2
U 1 1 5E99AD30
P 1200 9150
F 0 "H2" H 1300 9196 50  0000 L CNN
F 1 "MountingHole" H 1300 9105 50  0000 L CNN
F 2 "MountingHole:MountingHole_3.2mm_M3_DIN965" H 1200 9150 50  0001 C CNN
F 3 "~" H 1200 9150 50  0001 C CNN
	1    1200 9150
	1    0    0    -1  
$EndComp
$Comp
L Mechanical:MountingHole H1
U 1 1 5E99B06F
P 1200 8700
F 0 "H1" H 1300 8746 50  0000 L CNN
F 1 "MountingHole" H 1300 8655 50  0000 L CNN
F 2 "MountingHole:MountingHole_3.2mm_M3_DIN965" H 1200 8700 50  0001 C CNN
F 3 "~" H 1200 8700 50  0001 C CNN
	1    1200 8700
	1    0    0    -1  
$EndComp
$Comp
L Mechanical:MountingHole H4
U 1 1 5E99CF54
P 2050 8700
F 0 "H4" H 2150 8746 50  0000 L CNN
F 1 "MountingHole" H 2150 8655 50  0000 L CNN
F 2 "MountingHole:MountingHole_3.2mm_M3_DIN965" H 2050 8700 50  0001 C CNN
F 3 "~" H 2050 8700 50  0001 C CNN
	1    2050 8700
	1    0    0    -1  
$EndComp
$Comp
L Mechanical:MountingHole H3
U 1 1 5E99E1A5
P 2050 9150
F 0 "H3" H 2150 9196 50  0000 L CNN
F 1 "MountingHole" H 2150 9105 50  0000 L CNN
F 2 "MountingHole:MountingHole_3.2mm_M3_DIN965" H 2050 9150 50  0001 C CNN
F 3 "~" H 2050 9150 50  0001 C CNN
	1    2050 9150
	1    0    0    -1  
$EndComp
$Comp
L power:VCC #PWR0108
U 1 1 5E999139
P 4300 8400
F 0 "#PWR0108" H 4300 8250 50  0001 C CNN
F 1 "VCC" V 4317 8528 50  0000 L CNN
F 2 "" H 4300 8400 50  0001 C CNN
F 3 "" H 4300 8400 50  0001 C CNN
	1    4300 8400
	0    -1   -1   0   
$EndComp
$Comp
L power:GND #PWR0111
U 1 1 5E99D620
P 7900 8500
F 0 "#PWR0111" H 7900 8250 50  0001 C CNN
F 1 "GND" V 7905 8372 50  0000 R CNN
F 2 "" H 7900 8500 50  0001 C CNN
F 3 "" H 7900 8500 50  0001 C CNN
	1    7900 8500
	0    -1   -1   0   
$EndComp
$Comp
L power:GND #PWR0113
U 1 1 5E9A0259
P 7900 8600
F 0 "#PWR0113" H 7900 8350 50  0001 C CNN
F 1 "GND" V 7905 8472 50  0000 R CNN
F 2 "" H 7900 8600 50  0001 C CNN
F 3 "" H 7900 8600 50  0001 C CNN
	1    7900 8600
	0    -1   -1   0   
$EndComp
$Comp
L MCU_Microchip_ATmega:ATmega32U4-AU U1
U 1 1 5E9F2AE3
P 6100 8500
F 0 "U1" V 5450 7100 50  0000 C CNN
F 1 "ATmega32U4-AU" V 5550 7100 50  0000 C CNN
F 2 "Package_QFP:TQFP-44_10x10mm_P0.8mm" H 6100 8500 50  0001 C CIN
F 3 "http://ww1.microchip.com/downloads/en/DeviceDoc/Atmel-7766-8-bit-AVR-ATmega16U4-32U4_Datasheet.pdf" H 6100 8500 50  0001 C CNN
	1    6100 8500
	0    -1   -1   0   
$EndComp
Text Label 7000 7900 1    50   ~ 0
Col_13
Text Label 7100 7900 1    50   ~ 0
Col_12
Text Label 7200 7900 1    50   ~ 0
Col_11
Text Label 7300 7900 1    50   ~ 0
Col_10
Text Label 7400 7900 1    50   ~ 0
Col_9
Text Label 7500 7900 1    50   ~ 0
Col_8
Text Label 5600 7900 1    50   ~ 0
Col_0
Text Label 5500 7900 1    50   ~ 0
Col_1
Text Label 5200 7900 1    50   ~ 0
Col_2
Text Label 5100 7900 1    50   ~ 0
Col_3
Text Label 5000 7900 1    50   ~ 0
Col_4
Text Label 6500 7900 1    50   ~ 0
Col_5
Text Label 6400 7900 1    50   ~ 0
Col_6
Text Label 6200 7900 1    50   ~ 0
Col_7
Text Label 6300 7900 1    50   ~ 0
Col_14
Text Label 6100 7900 1    50   ~ 0
Col_17
Text Label 6000 7900 1    50   ~ 0
Col_16
Text Label 5900 7900 1    50   ~ 0
Col_15
Text Label 5800 7900 1    50   ~ 0
Row_0
Text Label 5300 7900 1    50   ~ 0
Row_1
Text Label 4900 7900 1    50   ~ 0
Row_2
Text Label 4800 7900 1    50   ~ 0
Row_3
Text Label 4700 7900 1    50   ~ 0
Row_4
Text Label 4600 7900 1    50   ~ 0
Row_5
Text Label 6800 7900 1    50   ~ 0
Row_6
$Comp
L power:GND #PWR0106
U 1 1 5E98552C
P 6700 7400
F 0 "#PWR0106" H 6700 7150 50  0001 C CNN
F 1 "GND" H 6705 7272 50  0000 R CNN
F 2 "" H 6700 7400 50  0001 C CNN
F 3 "" H 6700 7400 50  0001 C CNN
	1    6700 7400
	-1   0    0    1   
$EndComp
$Comp
L Connector:USB_B_Micro J1
U 1 1 60533D93
P 5600 10450
F 0 "J1" V 5703 10780 50  0000 L CNN
F 1 "USB_B_Micro" V 5612 10780 50  0000 L CNN
F 2 "Connector_USB:USB_Micro-B_Wuerth_629105150521_CircularHoles" H 5750 10400 50  0001 C CNN
F 3 "~" H 5750 10400 50  0001 C CNN
	1    5600 10450
	0    -1   -1   0   
$EndComp
$Comp
L Device:C C8
U 1 1 5E993B22
P 5900 9550
F 0 "C8" H 5950 9650 50  0000 C CNN
F 1 "1u" H 5950 9450 50  0000 C CNN
F 2 "Capacitor_SMD:C_0805_2012Metric_Pad1.15x1.40mm_HandSolder" H 5900 9550 60  0001 C CNN
F 3 "" H 5900 9550 60  0000 C CNN
	1    5900 9550
	1    0    0    -1  
$EndComp
$Comp
L power:GND #PWR0107
U 1 1 5E997DFC
P 6000 10550
F 0 "#PWR0107" H 6000 10300 50  0001 C CNN
F 1 "GND" H 6050 10400 50  0000 C CNN
F 2 "" H 6000 10550 50  0001 C CNN
F 3 "" H 6000 10550 50  0001 C CNN
	1    6000 10550
	0    -1   -1   0   
$EndComp
$Comp
L power:VCC #PWR0117
U 1 1 5EA93C99
P 5400 10150
F 0 "#PWR0117" H 5400 10000 50  0001 C CNN
F 1 "VCC" V 5417 10323 50  0000 C CNN
F 2 "" H 5400 10150 50  0001 C CNN
F 3 "" H 5400 10150 50  0001 C CNN
	1    5400 10150
	0    -1   -1   0   
$EndComp
$Comp
L power:VCC #PWR0116
U 1 1 5E9BBECA
P 5400 9100
F 0 "#PWR0116" H 5400 8950 50  0001 C CNN
F 1 "VCC" H 5418 9227 50  0000 L CNN
F 2 "" H 5400 9100 50  0001 C CNN
F 3 "" H 5400 9100 50  0001 C CNN
	1    5400 9100
	-1   0    0    1   
$EndComp
$Comp
L power:VCC #PWR01
U 1 1 5EA29B06
P 4300 8600
F 0 "#PWR01" H 4300 8450 50  0001 C CNN
F 1 "VCC" V 4318 8727 50  0000 L CNN
F 2 "" H 4300 8600 50  0001 C CNN
F 3 "" H 4300 8600 50  0001 C CNN
	1    4300 8600
	0    -1   -1   0   
$EndComp
Wire Wire Line
	5900 9100 5900 9400
Wire Wire Line
	5000 9100 5000 10050
Wire Wire Line
	5000 10050 4850 10050
Wire Wire Line
	4800 9100 4800 9400
Wire Wire Line
	4800 9400 4250 9400
Wire Wire Line
	4250 10250 4250 10050
$Comp
L Device:R R2
U 1 1 5EA3E120
P 5600 10000
F 0 "R2" H 5550 10150 50  0000 C CNN
F 1 "22R" V 5600 10000 50  0000 C CNN
F 2 "Resistor_SMD:R_0805_2012Metric_Pad1.15x1.40mm_HandSolder" V 5530 10000 50  0001 C CNN
F 3 "~" H 5600 10000 50  0001 C CNN
	1    5600 10000
	1    0    0    -1  
$EndComp
$Comp
L Device:R R3
U 1 1 5EA3F186
P 5700 10000
F 0 "R3" H 5750 10150 50  0000 C CNN
F 1 "22R" V 5700 10000 50  0000 C CNN
F 2 "Resistor_SMD:R_0805_2012Metric_Pad1.15x1.40mm_HandSolder" V 5630 10000 50  0001 C CNN
F 3 "~" H 5700 10000 50  0001 C CNN
	1    5700 10000
	1    0    0    -1  
$EndComp
Wire Wire Line
	5600 9850 5600 9100
Wire Wire Line
	5700 9850 5700 9100
$Comp
L Device:R R4
U 1 1 5EA400FE
P 6700 7550
F 0 "R4" H 6600 7550 50  0000 C CNN
F 1 "10k" V 6700 7550 50  0000 C CNN
F 2 "Resistor_SMD:R_0805_2012Metric_Pad1.15x1.40mm_HandSolder" V 6630 7550 50  0001 C CNN
F 3 "~" H 6700 7550 50  0001 C CNN
	1    6700 7550
	1    0    0    -1  
$EndComp
Wire Wire Line
	6700 7700 6700 7900
$Comp
L Device:R R1
U 1 1 5EA41055
P 3450 10550
F 0 "R1" H 3350 10550 50  0000 C CNN
F 1 "10k" V 3450 10550 50  0000 C CNN
F 2 "Resistor_SMD:R_0805_2012Metric_Pad1.15x1.40mm_HandSolder" V 3380 10550 50  0001 C CNN
F 3 "~" H 3450 10550 50  0001 C CNN
	1    3450 10550
	1    0    0    -1  
$EndComp
$Comp
L Switch:SW_Push SW1
U 1 1 5EA4204B
P 3850 10600
F 0 "SW1" H 3850 10800 50  0000 C CNN
F 1 "Reset_SW" V 3850 10450 50  0000 C CNN
F 2 "Button_Switch_SMD:SW_Push_1P1T_NO_6x6mm_H9.5mm" H 3850 10800 50  0001 C CNN
F 3 "~" H 3850 10800 50  0001 C CNN
	1    3850 10600
	0    -1   -1   0   
$EndComp
$Comp
L Device:C C1
U 1 1 5EA42E8A
P 1100 9900
F 0 "C1" H 1215 9946 50  0000 L CNN
F 1 "0.1u" H 1215 9855 50  0000 L CNN
F 2 "Capacitor_SMD:C_0805_2012Metric_Pad1.15x1.40mm_HandSolder" H 1138 9750 50  0001 C CNN
F 3 "~" H 1100 9900 50  0001 C CNN
	1    1100 9900
	1    0    0    -1  
$EndComp
$Comp
L Device:C C2
U 1 1 5EA435FD
P 1550 9900
F 0 "C2" H 1665 9946 50  0000 L CNN
F 1 "0.1u" H 1665 9855 50  0000 L CNN
F 2 "Capacitor_SMD:C_0805_2012Metric_Pad1.15x1.40mm_HandSolder" H 1588 9750 50  0001 C CNN
F 3 "~" H 1550 9900 50  0001 C CNN
	1    1550 9900
	1    0    0    -1  
$EndComp
$Comp
L Device:C C3
U 1 1 5EA439C6
P 2000 9900
F 0 "C3" H 2115 9946 50  0000 L CNN
F 1 "0.1u" H 2115 9855 50  0000 L CNN
F 2 "Capacitor_SMD:C_0805_2012Metric_Pad1.15x1.40mm_HandSolder" H 2038 9750 50  0001 C CNN
F 3 "~" H 2000 9900 50  0001 C CNN
	1    2000 9900
	1    0    0    -1  
$EndComp
$Comp
L Device:C C4
U 1 1 5EA43CF1
P 2450 9900
F 0 "C4" H 2565 9946 50  0000 L CNN
F 1 "0.1u" H 2565 9855 50  0000 L CNN
F 2 "Capacitor_SMD:C_0805_2012Metric_Pad1.15x1.40mm_HandSolder" H 2488 9750 50  0001 C CNN
F 3 "~" H 2450 9900 50  0001 C CNN
	1    2450 9900
	1    0    0    -1  
$EndComp
$Comp
L Device:C C5
U 1 1 5EA4413F
P 2900 9900
F 0 "C5" H 3015 9946 50  0000 L CNN
F 1 "4.7u" H 3015 9855 50  0000 L CNN
F 2 "Capacitor_SMD:C_0805_2012Metric_Pad1.15x1.40mm_HandSolder" H 2938 9750 50  0001 C CNN
F 3 "~" H 2900 9900 50  0001 C CNN
	1    2900 9900
	1    0    0    -1  
$EndComp
Wire Wire Line
	1100 9750 1550 9750
Wire Wire Line
	1100 10050 1550 10050
Connection ~ 1100 9750
Connection ~ 1550 9750
Wire Wire Line
	1550 9750 2000 9750
Connection ~ 2000 9750
Wire Wire Line
	2000 9750 2450 9750
Connection ~ 2450 9750
Connection ~ 1100 10050
Connection ~ 1550 10050
Wire Wire Line
	1550 10050 2000 10050
Connection ~ 2000 10050
Wire Wire Line
	2000 10050 2450 10050
Connection ~ 2450 10050
Wire Wire Line
	2450 9750 2900 9750
Wire Wire Line
	2450 10050 2900 10050
$Comp
L Device:C C7
U 1 1 5EA476FD
P 4850 10400
F 0 "C7" H 4750 10500 50  0000 C CNN
F 1 "22p" H 4750 10300 50  0000 C CNN
F 2 "Capacitor_SMD:C_0805_2012Metric_Pad1.15x1.40mm_HandSolder" H 4888 10250 50  0001 C CNN
F 3 "~" H 4850 10400 50  0001 C CNN
	1    4850 10400
	1    0    0    -1  
$EndComp
Wire Wire Line
	4850 10650 4850 10550
$Comp
L Device:C C6
U 1 1 5EA48CE5
P 4250 10400
F 0 "C6" H 4300 10500 50  0000 C CNN
F 1 "22p" H 4350 10300 50  0000 C CNN
F 2 "Capacitor_SMD:C_0805_2012Metric_Pad1.15x1.40mm_HandSolder" H 4288 10250 50  0001 C CNN
F 3 "~" H 4250 10400 50  0001 C CNN
	1    4250 10400
	1    0    0    -1  
$EndComp
Wire Wire Line
	4250 10650 4250 10550
$Comp
L Device:Crystal Y1
U 1 1 5EA49BA6
P 4550 10050
F 0 "Y1" V 4504 10181 50  0000 L CNN
F 1 "Crystal" V 4595 10181 50  0000 L CNN
F 2 "Crystal:Crystal_SMD_5032-2Pin_5.0x3.2mm_HandSoldering" H 4550 10050 50  0001 C CNN
F 3 "~" H 4550 10050 50  0001 C CNN
	1    4550 10050
	1    0    0    -1  
$EndComp
Wire Wire Line
	4400 10050 4250 10050
Connection ~ 4250 10050
Wire Wire Line
	4250 10050 4250 9400
Wire Wire Line
	4700 10050 4850 10050
Connection ~ 4850 10050
Text Label 3850 10400 1    50   ~ 0
Reset
Text Label 4600 9100 3    50   ~ 0
Reset
Text Label 7600 10050 2    50   ~ 0
Row_4
Text Label 8100 10050 0    50   ~ 0
Row_3
Text Label 8100 9950 0    50   ~ 0
Row_2
$Comp
L power:GND #PWR?
U 1 1 6015E4D5
P 7600 10150
F 0 "#PWR?" H 7600 9900 50  0001 C CNN
F 1 "GND" V 7605 10022 50  0000 R CNN
F 2 "" H 7600 10150 50  0001 C CNN
F 3 "" H 7600 10150 50  0001 C CNN
	1    7600 10150
	0    1    1    0   
$EndComp
$Comp
L power:VCC #PWR?
U 1 1 6015C011
P 7600 9950
F 0 "#PWR?" H 7600 9800 50  0001 C CNN
F 1 "VCC" V 7618 10077 50  0000 L CNN
F 2 "" H 7600 9950 50  0001 C CNN
F 3 "" H 7600 9950 50  0001 C CNN
	1    7600 9950
	0    -1   -1   0   
$EndComp
Text Label 8100 10150 0    50   ~ 0
Reset
$Comp
L Connector_Generic:Conn_02x03_Odd_Even J2
U 1 1 60155D68
P 7800 10050
F 0 "J2" H 7850 10367 50  0000 C CNN
F 1 "Conn_02x03_Odd_Even" H 7850 10276 50  0000 C CNN
F 2 "Connector_PinHeader_2.54mm:PinHeader_2x03_P2.54mm_Vertical" H 7800 10050 50  0001 C CNN
F 3 "~" H 7800 10050 50  0001 C CNN
	1    7800 10050
	1    0    0    -1  
$EndComp
NoConn ~ 5800 10150
Wire Wire Line
	6000 10550 6000 10450
Connection ~ 6000 10550
Wire Wire Line
	6000 10450 6000 9700
Wire Wire Line
	6000 9700 5900 9700
Connection ~ 6000 10450
$EndSCHEMATC
$EndSCHEMATC